412.771	-6.0427333976e-05	0.000239565956282	0.00376977233821	5.54646585314e-08	1.17667414878e-05
412.803	-6.04307169192e-05	0.000239585399179	0.00377007916727	5.5462831473e-08	1.17669198246e-05
412.831	-6.04342023907e-05	0.0002396054313	0.00377039529491	5.54609486363e-08	1.17671035812e-05
412.871	-6.04375853627e-05	0.000239624874284	0.00377070212539	5.54591214349e-08	1.17672819365e-05
412.903	-6.04409683489e-05	0.000239644317312	0.00377100895657	5.54572943596e-08	1.17674602759e-05
412.937	-6.04444538647e-05	0.000239664349567	0.0037713250864	5.54554120333e-08	1.17676440045e-05
412.971	-6.04478368797e-05	0.000239683792682	0.003771631919	5.54535848539e-08	1.17678223596e-05
413.004	-6.0451219909e-05	0.00023970323584	0.0037719387523	5.54517578072e-08	1.17680006987e-05
413.037	-6.04547054691e-05	0.00023972326823	0.00377225488431	5.5449875035e-08	1.1768184451e-05
413.071	-6.04580885271e-05	0.000239742711476	0.00377256171903	5.54480476108e-08	1.17683628255e-05
413.103	-6.04614715994e-05	0.000239762154764	0.00377286855445	5.54462208831e-08	1.17685411292e-05
413.134	-6.04649572038e-05	0.000239782187289	0.00377318468865	5.54443380581e-08	1.17687249089e-05
413.171	-6.04683403049e-05	0.000239801630665	0.00377349152549	5.54425107547e-08	1.17689032748e-05
413.204	-6.04717234202e-05	0.000239821074084	0.00377379836303	5.54406835205e-08	1.1769081621e-05
413.238	-6.04752090689e-05	0.000239841106743	0.00377411449941	5.54388009235e-08	1.17692653579e-05
413.271	-6.04785922131e-05	0.00023986055025	0.00377442133837	5.5436970602e-08	1.17694437169e-05
413.304	-6.04819753713e-05	0.0002398799938	0.00377472817803	5.54351431734e-08	1.17696220657e-05
413.338	-6.04854610644e-05	0.000239900026593	0.00377504431659	5.54332605482e-08	1.17698058281e-05
413.371	-6.04888442516e-05	0.000239919470231	0.00377535115767	5.54314334914e-08	1.17699841637e-05
413.404	-6.04922274529e-05	0.000239938913911	0.00377565799945	5.54296062371e-08	1.17701625227e-05
413.438	-6.04957131903e-05	0.000239958946839	0.00377597414019	5.54277232504e-08	1.17703463023e-05
413.466	-6.04990964205e-05	0.000239978390607	0.00377628098339	5.54258962116e-08	1.17705246333e-05
413.503	-6.05024796648e-05	0.000239997834418	0.00377658782729	5.54240691038e-08	1.17707029749e-05
413.538	-6.05059654466e-05	0.000240017867481	0.00377690397022	5.54221865872e-08	1.17708867282e-05
413.57	-6.05093487197e-05	0.00024003731138	0.00377721081554	5.54203590443e-08	1.17710651033e-05
413.603	-6.05127320071e-05	0.000240056755321	0.00377751766155	5.54185320384e-08	1.17712434432e-05
413.636	-6.05162178332e-05	0.000240076788518	0.00377783380667	5.54166492969e-08	1.17714272125e-05
413.67	-6.05196011494e-05	0.000240096232548	0.0037781406541	5.54148222804e-08	1.17716055415e-05
413.704	-6.05229844798e-05	0.00024011567662	0.00377844750224	5.54129944651e-08	1.17717839347e-05
413.737	-6.05264703502e-05	0.000240135709952	0.00377876364954	5.54111119947e-08	1.17719676791e-05
413.756	-6.05298537094e-05	0.000240155154111	0.0037790704991	5.54092847134e-08	1.17721460338e-05
413.804	-6.05332370828e-05	0.000240174598314	0.00377937734935	5.54074575383e-08	1.17723243845e-05
413.839	-6.05367229976e-05	0.000240194631781	0.00377969349883	5.54055746553e-08	1.17725081702e-05
413.858	-6.05401063998e-05	0.000240214076071	0.00378000035051	5.54037473194e-08	1.17726865295e-05
413.903	-6.05434898163e-05	0.000240233520405	0.00378030720289	5.5401920095e-08	1.17728648797e-05
413.938	-6.05469757753e-05	0.000240253554005	0.00378062335455	5.54000373611e-08	1.17730486426e-05
413.971	-6.05503592206e-05	0.000240272998426	0.00378093020835	5.53982099611e-08	1.17732270158e-05
414.004	-6.05537426801e-05	0.000240292442891	0.00378123706284	5.53963827939e-08	1.17734053668e-05
414.038	-6.05572286835e-05	0.000240312476626	0.00378155321669	5.53944999564e-08	1.17735891271e-05
414.07	-6.05606121718e-05	0.000240331921178	0.00378186007261	5.53926726494e-08	1.17737674843e-05
414.104	-6.05639956743e-05	0.000240351365772	0.00378216692922	5.5390845311e-08	1.17739458428e-05
414.138	-6.0567481722e-05	0.000240371399642	0.00378248308525	5.53889625497e-08	1.17741296173e-05
414.172	-6.05708652533e-05	0.000240390844325	0.00378278994329	5.53871351202e-08	1.17743079933e-05
414.204	-6.05742487989e-05	0.00024041028905	0.00378309680202	5.53853080811e-08	1.17744863231e-05
414.238	-6.05777348909e-05	0.000240430323055	0.00378341296024	5.53834251454e-08	1.17746701131e-05
414.271	-6.05811184653e-05	0.000240449767867	0.0037837198204	5.53815977382e-08	1.17748484774e-05
414.303	-6.05845020539e-05	0.000240469212723	0.00378402668125	5.53797703341e-08	1.17750268455e-05
414.335	-6.05879881903e-05	0.000240489246862	0.00378434284165	5.53778878963e-08	1.17752105865e-05
414.371	-6.05913718076e-05	0.000240508691806	0.00378464970393	5.53760601241e-08	1.17753889898e-05
414.404	-6.05947554392e-05	0.000240528136793	0.0037849565669	5.53742328579e-08	1.17755673481e-05
414.436	-6.059824162e-05	0.000240548171066	0.00378527272948	5.5372350408e-08	1.17757510901e-05
414.471	-6.06016252804e-05	0.00024056761614	0.00378557959388	5.53705228002e-08	1.1775929481e-05
414.504	-6.0605008955e-05	0.000240587061258	0.00378588645897	5.53686953076e-08	1.17761078499e-05
414.537	-6.06084951801e-05	0.000240607095666	0.00378620262374	5.5366812357e-08	1.17762916234e-05
414.571	-6.06118788835e-05	0.00024062654087	0.00378650949026	5.53649849698e-08	1.17764699965e-05
414.604	-6.06152626012e-05	0.000240645986118	0.00378681635747	5.53631576205e-08	1.1776648354e-05
414.637	-6.06187488706e-05	0.000240666020661	0.00378713252442	5.53612747641e-08	1.17768321338e-05
414.671	-6.06221326171e-05	0.000240685465996	0.00378743939305	5.5359447274e-08	1.1777010506e-05
414.704	-6.06255163777e-05	0.000240704911375	0.00378774626239	5.53576198863e-08	1.17771888749e-05
414.738	-6.06290026915e-05	0.000240724946052	0.00378806243152	5.53557369691e-08	1.17773726675e-05
414.768	-6.0632386481e-05	0.000240744391518	0.00378836930228	5.53539097261e-08	1.17775510146e-05
414.804	-6.06357702847e-05	0.000240763837027	0.00378867617373	5.53520821037e-08	1.17777294058e-05
414.838	-6.06392566428e-05	0.000240783871839	0.00378899234505	5.53501993015e-08	1.17779131785e-05
414.87	-6.06426404753e-05	0.000240803317436	0.00378929921792	5.53483719042e-08	1.17780915448e-05
414.904	-6.06460243221e-05	0.000240822763075	0.0037896060915	5.53465443372e-08	1.17782699238e-05
414.938	-6.06495107245e-05	0.000240842798022	0.003789922265	5.53446615389e-08	1.17784537005e-05
414.971	-6.06528946e-05	0.000240862243749	0.00379022913999	5.53428311411e-08	1.17786320553e-05
415.005	-6.06562784898e-05	0.00024088168952	0.00379053601569	5.53410035521e-08	1.1778810439e-05
415.038	-6.06597649366e-05	0.000240901724601	0.00379085219137	5.53391208471e-08	1.17789942007e-05
415.071	-6.06631488552e-05	0.000240921170458	0.00379115906849	5.53372928378e-08	1.17791726254e-05
415.103	-6.0666532788e-05	0.000240940616359	0.0037914659463	5.53354659124e-08	1.17793509508e-05
415.138	-6.06700192791e-05	0.000240960651575	0.00379178212417	5.53335829501e-08	1.177953474e-05
415.17	-6.06734032407e-05	0.000240980097563	0.0037920890034	5.53317555064e-08	1.17797131096e-05
415.204	-6.06767872166e-05	0.000240999543595	0.00379239588334	5.53299277724e-08	1.17798915109e-05
415.237	-0.000629847314679	0.000239032251281	0.00376649388558	-0.0324125272499	-0.00183973288799
415.271	-0.00223818857649	0.000233072452773	0.00367946517892	-0.0639889275082	-0.00356858324919
415.304	-0.00488895004103	0.000223511367607	0.00353741345242	-0.0955491362096	-0.00512688652891
415.338	-0.00870285332524	0.000210346707756	0.00334025332733	-0.12758539326	-0.00646877352693
415.371	-0.0134264282898	0.000194963748793	0.00310874797038	-0.157335981418	-0.00746083393776
415.404	-0.0190885095529	0.000177841574219	0.00285682156784	-0.184001323048	-0.0025400284068
415.442	-0.025590590819	0.00015221709163	0.00559245105569	-0.197520606499	0.150875755846
415.471	-0.0322270144834	9.33590563546e-05	0.0119010619712	-0.201866273348	0.199756113312
415.503	-0.0388874832929	-9.45271457682e-06	0.018489925551	-0.20181752775	0.199246492214
415.535	-0.0457375019182	-0.000159486083713	0.0251619559407	-0.20087810693	0.188757258613
415.571	-0.0523397545287	-0.000331243097254	0.0311800061603	-0.200256244368	0.188154784222
415.603	-0.0589793154169	-0.00055849152059	0.037692525267	-0.201856454749	0.196166262458
415.638	-0.0658294549457	-0.000841726206653	0.0444708618192	-0.201615216689	0.199447154678
415.671	-0.0724760476547	-0.0011610567496	0.0510556004635	-0.201632857318	0.199721115405
415.704	-0.0791209917048	-0.00152417784482	0.0576483075036	-0.201665282034	0.199893531961
415.737	-0.0859657936089	-0.00194418614893	0.0644449471793	-0.201704629273	0.199991681543
415.771	-0.0926075779072	-0.00239641733554	0.0710456594886	-0.201743100226	0.20015317553
415.803	-0.0992473899809	-0.00289258364454	0.0776503195508	-0.20178347191	0.200285414552
415.838	-0.106085992987	-0.00344975277544	0.0844593672447	-0.201823681924	0.200417783655
415.871	-0.11272076957	-0.00403516468328	0.0910721749277	-0.201859122257	0.200521073674
415.904	-0.119352572604	-0.00466455156793	0.0976890779419	-0.201893374728	0.200633699465
415.936	-0.126181523819	-0.00535896822742	0.104506775014	-0.201897420711	0.200428910171
415.97	-0.132804266933	-0.00607736155605	0.111110357274	-0.201857372616	0.199775015335
416.004	-0.139418431169	-0.00683894124109	0.11766619712	-0.201571046173	0.196309226798
416.037	-0.146189781998	-0.00766247872645	0.123987987758	-0.199961779789	0.178516908373
416.071	-0.152763039868	-0.00850326845866	0.130204550772	-0.201881876835	0.200107674911
416.103	-0.159360723643	-0.00939049828432	0.136769108793	-0.201683097552	0.198637981264
416.137	-0.166147474786	-0.0103493066958	0.143580652909	-0.201368629094	0.203456751246
416.171	-0.172725794737	-0.0113247130813	0.15023490973	-0.201824392102	0.197564387083
416.203	-0.179303066303	-0.0123441479283	0.156828136347	-0.201679251419	0.200072032752
416.237	-0.18607283628	-0.0134399302166	0.163633781638	-0.201700675094	0.200418759531
416.268	-0.192636991926	-0.0145476593853	0.170247262271	-0.201737254831	0.200587126181
416.304	-0.199194793803	-0.0156989789751	0.176864373305	-0.201777110514	0.200706393207
416.338	-0.205944354547	-0.0169307729584	0.183685396368	-0.201814647764	0.200838575349
416.37	-0.212488316046	-0.0181705632743	0.190309105147	-0.201850920503	0.200929938606
416.402	-0.219024892065	-0.0194538715228	0.19693572382	-0.201875547938	0.200918800721
416.437	-0.225750380186	-0.0208213037545	0.203755315324	-0.201852465821	0.200439293027
416.47	-0.232267307761	-0.0221919370593	0.210349848319	-0.201743614318	0.199014334237
416.503	-0.238758511888	-0.0236008907792	0.216746904934	-0.200375428418	0.183438977745
416.538	-0.245402407412	-0.0250864569049	0.22293636811	-0.200971879306	0.19022805625
416.571	-0.251887030084	-0.026580414044	0.229461533466	-0.20172758865	0.198274882591
416.604	-0.258363949315	-0.0281173424597	0.236008102326	-0.201719667438	0.198190289421
416.638	-0.265026697409	-0.029745089294	0.242761204927	-0.201731654601	0.198621460354
416.67	-0.271482922788	-0.0313676393635	0.249334984528	-0.201704768581	0.199667870125
416.704	-0.27792136867	-0.0330312495747	0.256027873526	-0.201158129682	0.207946256314
416.738	-0.284541319931	-0.0347908530624	0.262961681305	-0.201852504983	0.198804478904
416.771	-0.290964101845	-0.0365442938111	0.269576453354	-0.201750588759	0.200823646766
416.804	-0.297375474679	-0.0383403227363	0.276203383142	-0.201770623661	0.20116166565
416.838	-0.303969332869	-0.0402354071062	0.283037768421	-0.201805117003	0.201267827359
416.871	-0.310357790256	-0.0421181281435	0.28967414816	-0.201840717039	0.201349265054
416.904	-0.316734138792	-0.0440433648521	0.296308266428	-0.20183661122	0.201067693344
416.938	-0.323289364513	-0.0460708274862	0.303126600695	-0.201785891167	0.200254310556
416.975	-0.329632926249	-0.0480790519832	0.309672378284	-0.201290777653	0.194445098813
417.004	-0.335923790281	-0.0501142681818	0.315742234603	-0.200154068568	0.181553868025
417.037	-0.342417900918	-0.0522604812654	0.322301010087	-0.201733536728	0.19904076934
417.071	-0.348723677929	-0.0543910028475	0.32885844236	-0.201691793312	0.19840654894
417.104	-0.355015783821	-0.0565629655717	0.335414055925	-0.201723181391	0.198486686635
417.138	-0.361484592463	-0.058844229626	0.342171713287	-0.201762667233	0.19862563187
417.171	-0.367749149729	-0.0611004901399	0.348737563546	-0.201783875233	0.19896927352
417.203	-0.373999170603	-0.0633979503794	0.355316552679	-0.201794411182	0.199463756664
417.238	-0.380422414109	-0.0658074865993	0.362119575462	-0.201734106391	0.200956880523
417.25	-0.386629538524	-0.068184246778	0.368907777668	-0.200977171559	0.212222795495
417.304	-0.392821132252	-0.0706043438102	0.375695095184	-0.201956697898	0.199035611582
417.338	-0.399194796312	-0.0731452948876	0.382531883366	-0.20181281004	0.201530449823
417.371	-0.405364432	-0.0756532395138	0.389177951943	-0.201812349828	0.201638228437
417.404	-0.411516826332	-0.0782019100158	0.395816004665	-0.201787716217	0.20111037105
417.437	-0.417835744264	-0.0808694001887	0.402621831332	-0.201625609232	0.199012695397
417.47	-0.423928030713	-0.0834880426296	0.408927749414	-0.199984400207	0.18033678542
417.504	-0.429990929962	-0.0861385966264	0.415070342324	-0.201464308791	0.196835146328
417.538	-0.436256312284	-0.0889268565688	0.421846562618	-0.201666035561	0.198837586323
417.571	-0.442318631278	-0.0916732847349	0.428410323131	-0.201682974873	0.198774403183
417.604	-0.448363585176	-0.0944598211723	0.434976776489	-0.201718679299	0.198895283082
417.641	-0.454573475277	-0.097372743919	0.441747054781	-0.201758124416	0.199058035166
417.67	-0.460582777552	-0.100240653894	0.448322976021	-0.201795758687	0.199208833521
417.704	-0.46657411499	-0.103148547277	0.454903824158	-0.201834331143	0.199384966833
417.738	-0.472727645696	-0.106186143504	0.461692340143	-0.201854190904	0.199777135836
417.771	-0.478680561247	-0.109174414037	0.468295036868	-0.201854652573	0.200344990129
417.807	-0.484612957526	-0.112201128278	0.474926482702	-0.201752026875	0.202252523476
417.838	-0.490687830194	-0.115353265819	0.482023024813	-0.200876413715	0.214973889903
417.873	-0.496564762218	-0.118455948803	0.488864437227	-0.201927824826	0.199781912271
417.903	-0.502432347008	-0.121603902761	0.495489027208	-0.201725149527	0.200683781413
417.938	-0.508446939812	-0.124882040448	0.502206667384	-0.200874777906	0.191068182101
417.97	-0.514229587052	-0.128081866549	0.508278837009	-0.200596074962	0.187847007418
418.004	-0.520026022059	-0.131337386643	0.514786223285	-0.201622265392	0.19912838088
418.04	-0.525981421515	-0.134734717954	0.521559808148	-0.201641292703	0.199083102734
418.07	-0.531739997404	-0.138070895564	0.528132997611	-0.20167607217	0.199173810693
418.104	-0.537477421892	-0.141445380116	0.534710070195	-0.201714405538	0.199307182298
418.138	-0.543366356648	-0.14496212437	0.541491488846	-0.201753198629	0.199450110035
418.169	-0.549060118252	-0.148414160396	0.548078713846	-0.20179212235	0.199613010223
418.203	-0.554731971189	-0.15190423403	0.554670927888	-0.201831050329	0.199782868151
418.238	-0.560552494743	-0.155539737097	0.561467354444	-0.20187024197	0.199933163424
418.271	-0.566178973851	-0.159106659765	0.568068276548	-0.201904016869	0.20007473467
418.304	-0.571782343507	-0.16271102234	0.574677659476	-0.201915101299	0.200453907398
418.335	-0.577530268657	-0.166463153333	0.581499354988	-0.20187920486	0.200793467719
418.371	-0.583082027118	-0.17014019533	0.588141405715	-0.201648674395	0.202778544903
418.404	-0.588587157113	-0.173840074578	0.595068763899	-0.200420702745	0.213474916045
418.437	-0.594209795643	-0.177675221891	0.601662726156	-0.200092195606	0.18020155517
418.471	-0.599663636423	-0.18144631839	0.607981155591	-0.201806773427	0.201417466645
418.504	-0.605112024985	-0.185266689785	0.614570471351	-0.20161064505	0.199475977288
418.538	-0.610698822102	-0.189240023179	0.621351571103	-0.20163430416	0.199464305644
418.571	-0.616096207761	-0.19313320937	0.627935822646	-0.201669549482	0.199594256709
418.603	-0.621468753702	-0.197062522809	0.634524025449	-0.201708272322	0.199722930442
418.64	-0.626977857718	-0.201148564489	0.641316658288	-0.201748699428	0.199857225508
418.67	-0.632299184959	-0.205150837614	0.647914439916	-0.201788809457	0.200013232669
418.703	-0.637594867584	-0.209188826392	0.654517004435	-0.201827805129	0.200166009702
418.738	-0.643023900886	-0.213386355517	0.661324268784	-0.201864556376	0.200290447389
418.77	-0.648266670674	-0.217496367149	0.667935720573	-0.201901142266	0.20041722562
418.804	-0.653482912253	-0.221641572057	0.674550435885	-0.201925969082	0.20044503948
418.837	-0.658828348474	-0.225948307958	0.681358437091	-0.201898329664	0.200026395124
418.868	-0.663986884795	-0.230161788766	0.687948125288	-0.201781649048	0.19900413005
418.903	-0.669106218155	-0.234399250029	0.694380209057	-0.200618877741	0.186481603253
418.938	-0.674330149278	-0.238778031609	0.700789233531	-0.201056348276	0.20084030432
418.97	-0.679375238058	-0.243066464239	0.707865758611	-0.200291746702	0.218686051725
419.003	-0.684398005331	-0.247397902721	0.714753897426	-0.201737625854	0.198001478168
419.037	-0.689559936172	-0.251910580792	0.721538584735	-0.201637954543	0.199855032141
419.071	-0.694540745024	-0.256324064931	0.728136928769	-0.20166252855	0.200065306192
419.102	-0.699493082446	-0.260770997652	0.734739562377	-0.201700950315	0.200171735806
419.14	-0.704565561402	-0.265387606468	0.741545863166	-0.201742971153	0.200297314893
419.172	-0.70945955158	-0.269902151841	0.748155468039	-0.201781535761	0.200437903728
419.204	-0.714324411378	-0.274449726976	0.754768444883	-0.201820305478	0.200552607656
419.237	-0.719305942107	-0.279169448011	0.76158552704	-0.201857264057	0.200645939304
419.275	-0.724110843801	-0.283783476377	0.768205763549	-0.201891213399	0.200738850165
419.304	-0.728885481053	-0.288429591103	0.774824580461	-0.201888682273	0.200463980798
419.338	-0.733771955175	-0.293248805268	0.78162835175	-0.201841945762	0.199719827365
419.371	-0.738480168373	-0.297954233185	0.788172582992	-0.201452432776	0.195158844738
419.401	-0.743135627556	-0.302666404701	0.794350803359	-0.200671136654	0.186474024296
419.437	-0.747919206036	-0.307570986495	0.801016919854	-0.201678403532	0.198095489191
419.471	-0.752534763885	-0.312366696396	0.807577932319	-0.201667640269	0.198802222243
419.504	-0.757116273905	-0.317189310505	0.814200735563	-0.201309209009	0.204493951082
419.538	-0.761777593948	-0.322165354957	0.821536642128	-0.20027514862	0.219472231244
419.572	-0.766277784108	-0.327039889184	0.82843744551	-0.201805153586	0.198499966803
419.603	-0.770760294274	-0.331960772338	0.835044554181	-0.201703757787	0.200515927786
419.655	-0.775344832138	-0.337062030836	0.841863423475	-0.201734821132	0.200759629616
419.7	-0.779761888822	-0.342043854145	0.848485813326	-0.201774240507	0.200875749037
419.742	-0.784146603102	-0.347055685506	0.855111093035	-0.201812031708	0.200972946344
419.742	-0.788630124099	-0.352250557947	0.861940348618	-0.201848966855	0.201076893757
419.787	-0.79294838055	-0.357322554622	0.868570602403	-0.201867411175	0.200988611466
419.801	-0.797232773839	-0.362422871171	0.875191571101	-0.201844389637	0.200497289036
419.849	-0.80161042757	-0.367705679082	0.881985545245	-0.201716293315	0.198851148597
419.885	-0.805813593904	-0.372845905521	0.888359777353	-0.200477250202	0.184756485831
419.924	-0.80998153539	-0.378009333038	0.894684258557	-0.20193376433	0.200870527836
419.958	-0.814254438455	-0.383375363241	0.90144723799	-0.201716871978	0.19825767059
419.997	-0.818366418037	-0.388610336168	0.907996604628	-0.201726509139	0.198289727578
420.022	-0.822444218218	-0.393872396198	0.914554680116	-0.201736215765	0.198722726967
420.022	-0.826609339897	-0.399321690199	0.921331330702	-0.201713605364	0.199676903306
420.09	-0.830613438354	-0.404632865558	0.928008190137	-0.201159438109	0.208165904864
420.104	-0.834557076985	-0.409940947548	0.935247558508	-0.20022028228	0.221918545085
420.142	-0.838593231296	-0.415457598871	0.942405432736	-0.201852989955	0.199564172807
420.188	-0.842488108027	-0.420857903656	0.949034803304	-0.201772365416	0.201269317389
420.214	-0.846347406061	-0.426284389127	0.955673126057	-0.20180073848	0.201436094786
420.262	-0.850286534019	-0.431902905155	0.962515972853	-0.201837809887	0.201503761023
420.31	-0.854073211919	-0.437382187098	0.969153443454	-0.20182961065	0.201142871916
420.31	-0.857822987644	-0.442885730129	0.975774039885	-0.201777214516	0.200333912117
420.353	-0.861645131725	-0.448575862134	0.982513662879	-0.20121699907	0.193767197021
420.371	-0.865304947107	-0.45410183493	0.988768823365	-0.2012876099	0.194419329382
420.404	-0.868944613536	-0.459675390152	0.995342081686	-0.201710662385	0.198935643578
420.447	-0.872655858153	-0.465442207384	1.0021023355	-0.201693351116	0.198513089512
420.491	-0.876220844448	-0.471063684232	1.008662276	-0.201727690044	0.198633414689
420.517	-0.87974943555	-0.476709336249	1.01522587889	-0.201765082819	0.198783729505
420.56	-0.883346649018	-0.482551065559	1.02199438982	-0.201791508165	0.199054459634
420.601	-0.886800406351	-0.488244572045	1.02857625179	-0.201801825229	0.199553153132
420.641	-0.89021645015	-0.493960517307	1.03517946717	-0.201769386175	0.2006450693
420.641	-0.893692244305	-0.499865429352	1.04212407665	-0.20095891947	0.212676506716
420.672	-0.897003078086	-0.505584247159	1.04947611553	-0.200212950858	0.223713464282
420.704	-0.900285779284	-0.511350985038	1.05645411704	-0.201914998567	0.200275364616
420.738	-0.903639581121	-0.517337282507	1.06330344451	-0.201807441456	0.201703517818
420.789	-0.906855102598	-0.523168659448	1.06994498888	-0.201779074251	0.201218118449
420.821	-0.910031222084	-0.529019216843	1.07655591388	-0.201629620882	0.199236970857
420.868	-0.91325392904	-0.535050142198	1.08312381732	-0.200779752183	0.189478399475
420.917	-0.916349393492	-0.540935300885	1.08963631479	-0.201642695603	0.198909958056
420.917	-0.919408706837	-0.54684580924	1.09620807664	-0.201664699763	0.198945573258
420.957	-0.922520114662	-0.552956488724	1.10297488624	-0.201687339927	0.198925362008
420.97	-0.92550081362	-0.558908298958	1.10954589832	-0.201723599217	0.199048609224
421.005	-0.928442807951	-0.564880541906	1.11612148298	-0.201760007873	0.199187544087
421.048	-0.931433309259	-0.571054926383	1.12290131402	-0.201799661337	0.199347868604
421.093	-0.934296233321	-0.577068015491	1.12948654087	-0.201838379836	0.199520699986
421.121	-0.937119889165	-0.583100707507	1.13607799511	-0.201863088698	0.199829534499
421.175	-0.939987588821	-0.589335870491	1.14288198925	-0.201866989876	0.200328910183
421.175	-0.942730030295	-0.595405727106	1.14951021849	-0.201814119168	0.201643462627
421.202	-0.945427492403	-0.601482779482	1.15631984404	-0.200776425476	0.21664383514
421.238	-0.948142564101	-0.607722263659	1.16396769251	-0.200195738709	0.223833495783
421.284	-0.950745479105	-0.613826927634	1.17090506087	-0.201812864612	0.200641884595
421.33	-0.953313954174	-0.619962587675	1.1774624823	-0.201114433946	0.193949986958
421.375	-0.955913882532	-0.626290498626	1.18408517479	-0.201888218746	0.202475536151
421.376	-0.958402231004	-0.632463828603	1.19068561415	-0.201638440318	0.199419131743
421.416	-0.96084939385	-0.638652102085	1.19726399278	-0.201644363674	0.199259953263
421.438	-0.963328337225	-0.645045289465	1.20404167256	-0.201679979032	0.199346516838
421.481	-0.965693260711	-0.651267378737	1.21062379851	-0.20171825471	0.199468911221
421.521	-0.9680175515	-0.657505945607	1.21721045082	-0.201755500971	0.199592654212
421.564	-0.970369629915	-0.66395053751	1.2240017863	-0.201796405451	0.199757640309
421.613	-0.972610991229	-0.670221795574	1.23059814823	-0.201834949905	0.199916406403
421.613	-0.974811288404	-0.676508758952	1.23719861574	-0.201872426106	0.200049968679
421.651	-0.977035154851	-0.683002340274	1.24400344639	-0.201908575661	0.200182741194
421.671	-0.97915156497	-0.689320065745	1.2506146103	-0.201924996059	0.200479055443
421.716	-0.98122609782	-0.695651481999	1.25723481963	-0.201893211931	0.200672264317
421.754	-0.983318810867	-0.702186636596	1.26406635492	-0.201751280321	0.201559955241
421.796	-0.985301267583	-0.708524974731	1.2709165917	-0.200304737379	0.219512734507
421.835	-0.987223187396	-0.714825419297	1.27822689823	-0.199791747367	0.219494873662
421.872	-0.989169489225	-0.721379302782	1.28533916782	-0.201680259604	0.200107660132
421.916	-0.991020633135	-0.727770734871	1.29193199489	-0.201609980795	0.199654630827
421.916	-0.992829610299	-0.73417416305	1.29852082052	-0.201635781599	0.19969509748
421.963	-0.994649514354	-0.740784964607	1.30531185356	-0.201674233783	0.1997914452
421.97	-0.996373209453	-0.747214115914	1.31190644835	-0.201710599875	0.199884592615
422.009	-0.998054751634	-0.753655617012	1.31850487821	-0.201750608103	0.200028512616
422.059	-0.999743035289	-0.760304939292	1.32530752976	-0.201791912726	0.200168024861
422.084	-1.00133862829	-0.766770637045	1.33191423601	-0.20183080795	0.200298279712
422.131	-1.00289170997	-0.773247799779	1.33852489148	-0.201866651818	0.200402876967
422.166	-1.0044472799	-0.779932939432	1.34533995261	-0.20190392065	0.200524974089
422.211	-1.00591370297	-0.786432383807	1.35195728177	-0.20192440689	0.200486131397
422.211	-1.0073370728	-0.792941237359	1.35856658144	-0.201903184865	0.200050525551
422.247	-1.00875824281	-0.799655479424	1.36535842627	-0.201811315548	0.199195480043
422.247	-1.01009261124	-0.806172086762	1.37185858382	-0.201206851761	0.193029418107
422.312	-1.01138453425	-0.812697296412	1.37840110267	-0.201667175241	0.200037788297
422.346	-1.01266694608	-0.819411208778	1.38549097232	-0.200004109674	0.222494952617
422.389	-1.01385627027	-0.825897501305	1.39292032386	-0.200127138634	0.220804935134
422.428	-1.01500628339	-0.832434814262	1.3997489991	-0.201631226952	0.200143184168
422.471	-1.01614874042	-0.839195633831	1.40655132564	-0.201664415163	0.200203462942
422.515	-1.01721374727	-0.845765835084	1.41315893949	-0.201703093639	0.200339830168
422.515	-1.01823549271	-0.852344083364	1.41977015748	-0.201744057655	0.200463452632
422.547	-1.01924286029	-0.859129805088	1.42658518509	-0.201784895541	0.200594354969
422.57	-1.02017650712	-0.865723516951	1.4332030662	-0.201823127887	0.200710450625
422.615	-1.02106663611	-0.872324385545	1.43982450625	-0.201860530761	0.200810309703
422.654	-1.02193813936	-0.879132407188	1.44665029977	-0.201895301033	0.200889531558
422.701	-1.02273961354	-0.885746203143	1.45327304835	-0.201889927386	0.200580749815
422.748	-1.02349722062	-0.892364468799	1.45988208328	-0.201854903479	0.199967801606
422.748	-1.02423229427	-0.899185574081	1.46665541501	-0.201662331059	0.197623967907
422.794	-1.02490077311	-0.905803214649	1.47314134708	-0.20198067258	0.200966985435
422.803	-1.02552658336	-0.912433192082	1.47971862399	-0.201739106867	0.19848444715
422.855	-1.02612560816	-0.91926524419	1.48647603816	-0.201692257155	0.198634654567
422.896	-1.02666261887	-0.925898232809	1.49306508517	-0.201563834664	0.201019148443
422.939	-1.02715396282	-0.932510884077	1.50000446862	-0.200363687615	0.218337587714
422.939	-1.0276117957	-0.939337515471	1.50701752275	-0.201857138031	0.198038440768
422.981	-1.02801236233	-0.94598217828	1.5136254065	-0.201719745487	0.200442503615
423.004	-1.0283691497	-0.952629916526	1.52024190806	-0.201740026273	0.200799688077
423.046	-1.02869078469	-0.959482276629	1.52706607727	-0.201778072522	0.200942370134
423.089	-1.02895827618	-0.966136166463	1.53369263493	-0.201813746159	0.20103120093
423.124	-1.02918169329	-0.972792782645	1.54032225333	-0.201848988994	0.201139105413
423.168	-1.02936572931	-0.979653282949	1.54715269814	-0.201855541729	0.200932137398
423.2	-1.02949956019	-0.986312421255	1.55376926914	-0.201818537843	0.200295456326
423.244	-1.02958966086	-0.992968775568	1.56034149926	-0.201551988618	0.197087456591
423.244	-1.02963800828	-0.999790015787	1.56668984384	-0.199956657845	0.179064734075
423.284	-1.02964366422	-1.00641619111	1.57291201362	-0.201857508217	0.200241312544
423.304	-1.02960603503	-1.01307327918	1.57947459629	-0.201703630457	0.198267031646
423.352	-1.02952168149	-1.01993118147	1.58622233974	-0.201731888818	0.198258507433
423.393	-1.02939553113	-1.02658756705	1.59277635073	-0.201755042624	0.198557108277
423.441	-1.02922594887	-1.03324355012	1.59934161764	-0.201768915675	0.199006097916
423.441	-1.02900575435	-1.040100097	1.60612362516	-0.201754234939	0.199867405951
423.479	-1.02874715537	-1.04674981525	1.6127745234	-0.201512725939	0.203884623186
423.504	-1.02844396418	-1.05340095788	1.61939533384	-0.201710554249	0.20169587915
423.541	-1.02808561467	-1.06025212076	1.62622390592	-0.201787807117	0.201206395899
423.575	-1.02769303715	-1.06689981228	1.63286117388	-0.201806572984	0.201494062843
423.615	-1.0272562943	-1.07354555847	1.63950356	-0.201832006533	0.201491996476
423.653	-1.02676017623	-1.08038947858	1.64633896942	-0.201811700772	0.20101958853
423.696	-1.02623411023	-1.0870271148	1.65294876217	-0.201706481524	0.199633684091
423.742	-1.0256666416	-1.09364465975	1.65936503631	-0.200363781357	0.184226199556
423.742	-1.02504265712	-1.10042236384	1.66556041498	-0.200910931833	0.190360712493
423.784	-1.02438995808	-1.10704345037	1.67209800732	-0.201688201425	0.19881870459
423.803	-1.02369353795	-1.11366261742	1.67865823602	-0.201689060482	0.198583668165
423.847	-1.02293052849	-1.12047819102	1.6854182297	-0.201724790124	0.198698601643
423.891	-1.02214578018	-1.12708935579	1.69198350098	-0.201764695162	0.198835915614
423.93	-1.02131746949	-1.13369638522	1.69855321366	-0.201801243229	0.199003195454
423.973	-1.02041852335	-1.1404987321	1.70532998578	-0.201823672012	0.199381177281
423.973	-1.01950203825	-1.14709551186	1.71192015557	-0.201833882228	0.199879785119
424.024	-1.01854241883	-1.15368582732	1.71853141486	-0.201784467985	0.201127854046
424.037	-1.01750863338	-1.16046073813	1.72547519794	-0.201415228412	0.206819696177
424.071	-1.01645912412	-1.16703684411	1.7321242936	-0.201776808729	0.202220469471
424.119	-1.0153658971	-1.17360660912	1.73876597549	-0.201806243782	0.201498403435
424.154	-1.01419422761	-1.18036627134	1.74560004146	-0.201743512237	0.200861676462
424.208	-1.01301448346	-1.18691359186	1.75216294508	-0.201259172372	0.19507958847
424.208	-1.01180123203	-1.19341147556	1.7582389206	-0.200045066433	0.181343745172
424.25	-1.01050419546	-1.20012396134	1.76478982722	-0.201711087639	0.199779093029
424.271	-1.00919822021	-1.20664950857	1.77135980311	-0.201650997387	0.198902448439
424.319	-1.00784934354	-1.21316669338	1.77792749749	-0.201681838959	0.198963581388
424.367	-1.00641462286	-1.21987299612	1.78469824611	-0.201720759014	0.199102566357
424.408	-1.00497844983	-1.22637372394	1.7912748491	-0.201758536113	0.19925268963
424.408	-1.00349928431	-1.23286597031	1.79785657553	-0.201796964252	0.199416695182
424.448	-1.00193033698	-1.23954580656	1.80464265428	-0.201838141394	0.199587707847
424.471	-1.00036392619	-1.24601995346	1.81123379011	-0.201875380102	0.199753703994
424.513	-0.998754682291	-1.25248435769	1.81783276073	-0.201889729951	0.20011654846
424.556	-0.997052093271	-1.25913365805	1.82464596744	-0.201891012278	0.200636565748
424.594	-0.995356958084	-1.26557507101	1.83128524146	-0.201763501554	0.202371997718
424.647	-0.993621791481	-1.27199143892	1.83810083564	-0.201279021847	0.208081031747
424.647	-0.991786414325	-1.27859832792	1.84494111068	-0.20160193328	0.200182606075
424.689	-0.989970111526	-1.28497509893	1.85124734627	-0.19990322925	0.180173843518
424.697	-0.988119505493	-1.29132336883	1.85736498036	-0.201310715332	0.196096768414
424.743	-0.986157543875	-1.29789301468	1.86415204401	-0.201626157109	0.199348976799
424.781	-0.98421088168	-1.30425616005	1.87072833235	-0.201639344004	0.19927969294
424.83	-0.982222140021	-1.31060722266	1.87730637991	-0.201675631692	0.19937521139
424.87	-0.980129129132	-1.31713800962	1.88408818523	-0.201716250938	0.199515073456
424.92	-0.978054994894	-1.32346409017	1.8906753905	-0.201754461363	0.199649263053
424.92	-0.975938853422	-1.32977744027	1.89726772274	-0.201794044861	0.19981001259
424.969	-0.973714706018	-1.3362684671	1.90406502639	-0.201833986018	0.199978739191
424.971	-0.971513452407	-1.34255502693	1.91066684533	-0.201870799484	0.200099671071
425.014	-0.96927035279	-1.34882794356	1.91727276355	-0.20190650913	0.200236312205
425.059	-0.966915621966	-1.35527627224	1.92408304525	-0.201934603555	0.20037162972
425.108	-0.964588282406	-1.36151925409	1.93069339063	-0.201895380634	0.200232929819
425.108	-0.962220510196	-1.36774479912	1.9372949855	-0.201789592637	0.199717785243
425.145	-0.959744345599	-1.37413163059	1.94400755942	-0.200787944196	0.192353096425
425.171	-0.957338721448	-1.38027038634	1.95029459377	-0.199951113348	0.19484896532
425.21	-0.95485648732	-1.38643174645	1.95684242567	-0.201574079703	0.199736564791
425.262	-0.952252076901	-1.39277337196	1.96362517866	-0.201610732615	0.199511582026
425.298	-0.94968316275	-1.39891152474	1.97021260337	-0.201633565355	0.199709750248
425.334	-0.947073510999	-1.40503349464	1.97680393625	-0.201671067297	0.199822529074
425.377	-0.944342152441	-1.41132393172	1.98359877404	-0.201709361256	0.199933327655
425.377	-0.941649820164	-1.41741254572	1.99019772055	-0.20174902196	0.200077658114
425.42	-0.938916881261	-1.42348430044	1.99680079882	-0.201789142676	0.200212789649
425.438	-0.936058756597	-1.42972208391	2.00360829302	-0.201829082703	0.20034851781
425.473	-0.933243672514	-1.43575864201	2.01021963922	-0.20186437023	0.200453995973
425.519	-0.930388278153	-1.44177740347	2.01683501155	-0.20189877186	0.200566088715
425.557	-0.927404445973	-1.44795932266	2.02365123167	-0.201904333226	0.200375837187
425.601	-0.924468456459	-1.45393927769	2.03025391696	-0.201866920367	0.199743452337
425.646	-0.921494635149	-1.45989668321	2.03681289393	-0.201605815191	0.196680226847
425.646	-0.918407423078	-1.46598336865	2.04318161152	-0.200098516942	0.180335290801
425.691	-0.915371102054	-1.47187831621	2.04945989264	-0.201882031511	0.200668255307
425.704	-0.912286029163	-1.47777365053	2.05606968153	-0.201357587796	0.203378801057
425.743	-0.909077238747	-1.48380311559	2.06321727918	-0.200923748561	0.209535761067
425.798	-0.905912239955	-1.48965165373	2.06987381734	-0.201625373078	0.200245579018
425.838	-0.902706172611	-1.49548391518	2.07647163079	-0.201671103297	0.200155112792
425.879	-0.899362468802	-1.50147119394	2.08327933664	-0.201702743185	0.200383159029
425.879	-0.896077668673	-1.50726144116	2.08989122721	-0.201742745416	0.200513172373
425.917	-0.892754068065	-1.51303083997	2.09650650493	-0.201782036318	0.200641194669
425.937	-0.889289302163	-1.51895295211	2.10332560664	-0.201820653884	0.200761916163
425.975	-0.885887310622	-1.52467911491	2.1099475831	-0.20185691004	0.200852949417
426.022	-0.882446951752	-1.53038347719	2.11657261354	-0.201883251416	0.200860632129
426.063	-0.878862934447	-1.5362366827	2.12339108378	-0.201861148955	0.200391992675
426.101	-0.87534711323	-1.54189292706	2.12998599418	-0.201764787056	0.199091745615
426.15	-0.871802720101	-1.54751390066	2.13641050312	-0.200578404957	0.185573470758
426.15	-0.868131024141	-1.55325623315	2.14268357559	-0.201199888859	0.192512480237
426.189	-0.864508789787	-1.55884074879	2.14922632987	-0.201731787133	0.198300443745
426.204	-0.860849966949	-1.56440157888	2.15577645366	-0.201707955695	0.19835164728
426.247	-0.857042578728	-1.57010565059	2.1625390448	-0.201694570167	0.199156735082
426.294	-0.853313199483	-1.57561335468	2.16919052514	-0.201231289803	0.206349849678
426.336	-0.849561206962	-1.58107254186	2.17624310638	-0.200848444452	0.212162233676
426.38	-0.845640626167	-1.58669174771	2.18314808891	-0.201697120975	0.20090180253
426.38	-0.841794667908	-1.5921258364	2.18976746345	-0.201741075522	0.200914620636
426.428	-0.837912441473	-1.59753487227	2.19639553923	-0.201773490017	0.201099088971
426.438	-0.83387450282	-1.60308168899	2.2032278964	-0.20181070765	0.201180961777
426.479	-0.829918495537	-1.6084397741	2.20986216782	-0.201846294421	0.201270088229
426.516	-0.825926661409	-1.61377198486	2.216494639	-0.201845261161	0.201002314687
426.55	-0.821777489963	-1.61923735084	2.22331234146	-0.201799633136	0.200247677944
426.592	-0.817718278688	-1.62451120826	2.22986873829	-0.201393410724	0.195460724122
426.627	-0.81364743125	-1.62973121463	2.23602267154	-0.200448223562	0.184697916853
426.672	-0.809402624824	-1.63510311187	2.24265536161	-0.201681127104	0.198334087172
426.672	-0.805241169357	-1.64029808386	2.24921126505	-0.201701008983	0.19833940231
426.706	-0.801045457321	-1.645466019	2.25576471378	-0.201731715168	0.198407984528
426.738	-0.796686632266	-1.65076243999	2.26252151699	-0.201759772397	0.198670950757
426.767	-0.792421534608	-1.65587519199	2.26909141179	-0.20176917595	0.199150078331
426.82	-0.788123100555	-1.66095982624	2.27568128678	-0.201746701847	0.200098379413
426.858	-0.78366459906	-1.666163032	2.28259890441	-0.201039808138	0.210746649161
426.889	-0.779321681372	-1.6711586421	2.28976762241	-0.200818154253	0.214328112615
426.941	-0.774922940125	-1.67614738918	2.29650653314	-0.201768611325	0.201568379827
426.941	-0.770350722603	-1.68126291347	2.3033480711	-0.201803886967	0.201621840954
426.986	-0.765879207945	-1.686198403	2.30999474137	-0.201819109319	0.201578969065
427.002	-0.76137513649	-1.69110395005	2.3166316346	-0.201798590877	0.201071081052
427.049	-0.756702120193	-1.69612554364	2.32344064119	-0.201669801778	0.19937229468
427.098	-0.752148926234	-1.70095456497	2.32980881371	-0.200300246869	0.183715624322
427.143	-0.747572089641	-1.70574799622	2.33606629878	-0.201707072194	0.199389822302
427.143	-0.742802994678	-1.71067694308	2.34284587884	-0.201674761765	0.198773730109
427.184	-0.738143176547	-1.71542920796	2.34940850998	-0.201691285981	0.198710317013
427.203	-0.733451668472	-1.72015139249	2.35597364727	-0.201726414841	0.198833202482
427.247	-0.728584862146	-1.72498515163	2.3627423783	-0.201765559868	0.19898263522
427.289	-0.723829166408	-1.72964592795	2.36931667159	-0.201802388923	0.199145767148
427.322	-0.719042201562	-1.73427601443	2.37589746412	-0.201828584269	0.199459636524
427.372	-0.714078079945	-1.73901363918	2.38269094675	-0.201837018798	0.199997967074
427.372	-0.709229649029	-1.74357933372	2.38930746825	-0.201791738989	0.201168254175
427.415	-0.704359045755	-1.74810561552	2.39609049814	-0.200854459325	0.214919667912
427.437	-0.699332400561	-1.75270937411	2.40357492847	-0.200797001255	0.216021790677
427.482	-0.694394907842	-1.75716681693	2.41033221629	-0.20177608384	0.201776798325
427.51	-0.689423031352	-1.76159567474	2.41696492749	-0.20172765136	0.200865650693
427.557	-0.68427616514	-1.7661198743	2.4237132069	-0.201106123063	0.193546417682
427.597	-0.679274618817	-1.77045894971	2.42992175099	-0.201032402019	0.192521671285
427.637	-0.67422067837	-1.77478678415	2.43648839907	-0.201658802836	0.199371898499
427.678	-0.668982952664	-1.77921166826	2.44326165144	-0.201649755756	0.199016661116
427.678	-0.663870394673	-1.78347268017	2.44983370613	-0.201684544467	0.199113910448
427.728	-0.658729143059	-1.78770065232	2.45640967302	-0.201722441271	0.199247997855
427.738	-0.653402228588	-1.79202200014	2.46318992841	-0.201760505107	0.199389282087
427.776	-0.648203182421	-1.7961823121	2.46977593713	-0.201799401234	0.199553945675
427.823	-0.642975941716	-1.80030898866	2.47636661142	-0.201838555345	0.199717105883
427.858	-0.637561047419	-1.80452528017	2.48316163672	-0.201876748325	0.199876726986
427.898	-0.632277430412	-1.80858280772	2.48976328464	-0.201895880308	0.200181054901
427.935	-0.62696691752	-1.81260551104	2.49637822932	-0.201896100191	0.200709611521
427.985	-0.621468629471	-1.81671262715	2.50321881841	-0.201795493346	0.202017954245
427.985	-0.616118965672	-1.82065288703	2.51007690932	-0.200506309871	0.219232259971
428.028	-0.610770743874	-1.82453315567	2.51735446249	-0.200456371626	0.213582295975
428.038	-0.605222685674	-1.82849995469	2.52394083337	-0.200402228356	0.186048655229
428.076	-0.599795697875	-1.83232744637	2.53037741428	-0.201697857601	0.200488650497
428.122	-0.594332781527	-1.83612671784	2.53696427369	-0.201620140824	0.199447042066
428.159	-0.588678236682	-1.84000347243	2.54374430614	-0.201641893352	0.199416000999
428.196	-0.583164179961	-1.84372999979	2.55032730751	-0.201677511418	0.199536590072
428.234	-0.577624771981	-1.8474207621	2.55691430198	-0.201715916335	0.199658019484
428.278	-0.571891203587	-1.85118575526	2.56370580734	-0.201756254301	0.199798945316
428.278	-0.566300963906	-1.85480330507	2.57030253005	-0.201796156173	0.199956792921
428.321	-0.56068603232	-1.85838448234	2.57690402313	-0.201834885281	0.200110506622
428.338	-0.554875388572	-1.86203592196	2.58371008945	-0.201871617729	0.200233755387
428.376	-0.549211049179	-1.86554263838	2.59032016208	-0.201907970765	0.200367651196
428.419	-0.543522814047	-1.8690123394	2.59693387651	-0.201935297827	0.200431361611
428.455	-0.537638550219	-1.8725476384	2.60374489556	-0.201895978171	0.200210685448
428.498	-0.531906245631	-1.87593951431	2.61034551764	-0.201789873292	0.199601272375
428.545	-0.526161719314	-1.87928780616	2.61685381933	-0.200920902467	0.192322473756
428.545	-0.52025288703	-1.88268102535	2.62374492866	-0.200140024681	0.225235044218
428.576	-0.514504122887	-1.88592613802	2.63111528999	-0.200454791753	0.216133087038
428.601	-0.508694787626	-1.88915138315	2.63783440666	-0.2016048636	0.19978648504
428.649	-0.502678585886	-1.89243895578	2.64462637844	-0.201634616196	0.199918666696
428.677	-0.49681742067	-1.89559106576	2.6512242119	-0.201669866422	0.200000848842
428.729	-0.490934590285	-1.89870495721	2.65782522781	-0.201709352236	0.20010127138
428.775	-0.484851039556	-1.90187308028	2.66462982477	-0.201750443963	0.200239767238
428.775	-0.478924884398	-1.90490889253	2.6712378659	-0.201789666201	0.200371435602
428.816	-0.472977790808	-1.90790597311	2.67784940733	-0.201828491494	0.200484656692
428.838	-0.466828865228	-1.91095317418	2.68466513528	-0.201865429017	0.200583114109
428.871	-0.460840083498	-1.91387107202	2.69128408938	-0.201899990507	0.200675886248
428.921	-0.45483156174	-1.91674953454	2.69790233525	-0.20190102621	0.20044173716
428.963	-0.448621825803	-1.91967330885	2.70470708017	-0.201863376666	0.199789161002
429.008	-0.442579016933	-1.92246959226	2.71126911154	-0.20161069744	0.196806709321
429.008	-0.436537724461	-1.92521801604	2.71759588482	-0.201175348993	0.192252397395
429.047	-0.430277411128	-1.9280166521	2.72434295022	-0.201681332836	0.198860141812
429.072	-0.424184386611	-1.93069196375	2.73093263785	-0.201526864052	0.200968466216
429.108	-0.418098563671	-1.93331578381	2.7379044856	-0.199911950904	0.22392489175
429.157	-0.41183374208	-1.9359618308	2.74548683839	-0.200571680806	0.215254641008
429.204	-0.405691191461	-1.93850442116	2.7521935738	-0.201678483686	0.20022751913
429.204	-0.399524431749	-1.94100943376	2.75880466786	-0.201701504835	0.200556651265
429.242	-0.393152718764	-1.94354801241	2.76562242461	-0.201742569214	0.200689585098
429.27	-0.386950898928	-1.94597074902	2.77224296618	-0.201782865835	0.20079853895
429.319	-0.380732094735	-1.9483527767	2.77886646273	-0.201820110269	0.200904651361
429.357	-0.374307366679	-1.95076425916	2.78569409292	-0.201858067378	0.201007997097
429.394	-0.368055045948	-1.95306315961	2.79232331608	-0.201879740127	0.200953354026
429.441	-0.361787749277	-1.95532053774	2.79894447029	-0.201860244034	0.200505190476
429.441	-0.355316441757	-1.95760248255	2.8057443455	-0.201775294755	0.199330724219
429.474	-0.349031645898	-1.95977222109	2.81221370668	-0.20101160665	0.19059663875
429.504	-0.34273145645	-1.96190170514	2.81869569562	-0.201827673819	0.199459088503
429.544	-0.336219282681	-1.96405454943	2.82544653621	-0.201728654702	0.198248194426
429.59	-0.329885086988	-1.96610191127	2.83199817123	-0.201721757532	0.198406210741
429.637	-0.323537659387	-1.96810767983	2.83856280934	-0.201715241028	0.199054561161
429.674	-0.316986305925	-1.97013004013	2.8453748588	-0.201514196226	0.202558272445
429.674	-0.310645811911	-1.97203972498	2.85247007852	-0.199838514656	0.22671877575
429.723	-0.304311326138	-1.97389663105	2.85987248208	-0.200657413378	0.215696725888
429.738	-0.297721949414	-1.97577695532	2.8667919577	-0.201754550134	0.200903361512
429.777	-0.291307233567	-1.97756086291	2.87342390737	-0.201773801808	0.201265316162
429.826	-0.284879883697	-1.97930244289	2.88006063433	-0.201809969835	0.201358103312
429.866	-0.278244660346	-1.98105244364	2.88690151828	-0.201848344813	0.201427076132
429.912	-0.271792747413	-1.98270767261	2.89353828384	-0.201843703394	0.20112300477
429.912	-0.265330649883	-1.98431992314	2.90016061579	-0.20180626082	0.200466868485
429.944	-0.258665420114	-1.98593606945	2.90693705619	-0.201524134103	0.197054283682
429.971	-0.252197680571	-1.98745878579	2.91337381927	-0.201797631339	0.199974083383
430.015	-0.245706292227	-1.98894224272	2.91996480966	-0.201720862756	0.198857947451
430.057	-0.239010465485	-1.99042552912	2.926723641	-0.201704948234	0.198457426438
430.1	-0.232501649178	-1.99182197717	2.93328175435	-0.201738740379	0.198562048036
430.146	-0.225982821152	-1.9931759061	2.93984384931	-0.201771561664	0.198750198956
430.146	-0.219256648437	-1.99452620517	2.94661481738	-0.201784024966	0.199173720938
430.183	-0.212719595296	-1.99579318209	2.9532037413	-0.201775965172	0.199924909121
430.203	-0.206177067394	-1.9970165886	2.95984963579	-0.201500687938	0.204443882661
430.249	-0.199466253863	-1.99822324515	2.96726715502	-0.199814195913	0.228717193829
430.285	-0.192957352842	-1.99934282865	2.97466870385	-0.200893659619	0.213979509434
430.312	-0.18639099424	-2.00042469433	2.98137664551	-0.201815005939	0.201628198836
430.364	-0.179613155531	-2.00149450676	2.98822890385	-0.201817504735	0.20171997685
430.403	-0.173028061105	-2.00248841874	2.99487087826	-0.201799988606	0.201248278496
430.454	-0.166437733309	-2.0034387445	3.00149206161	-0.201729590136	0.200173297685
430.454	-0.159650540801	-2.00437124939	3.00820104274	-0.201272441564	0.194813627465
430.496	-0.153049849193	-2.00523333788	3.01478923322	-0.201631490185	0.198633349422
430.499	-0.146444380506	-2.00605176679	3.02136363514	-0.20167643306	0.198899372586
430.548	-0.139633408241	-2.00684955721	3.02812953618	-0.201697774257	0.198868192661
430.584	-0.133016816034	-2.00757988482	3.03469945653	-0.201733658401	0.198990897063
430.629	-0.126394490879	-2.00826683048	3.04127369093	-0.201769827178	0.199115627739
430.663	-0.119565744693	-2.008929134	3.04805188809	-0.201808826385	0.199293146803
430.703	-0.112932608246	-2.00952776174	3.05463591862	-0.201841550443	0.199522009566
430.749	-0.106295086146	-2.01008273018	3.06123030028	-0.201854593973	0.199967066844
430.749	-0.0994527956448	-2.01060866901	3.06804270027	-0.201836337287	0.20078021769
430.796	-0.0928120146533	-2.01107441854	3.07472062747	-0.201634638942	0.203373519735
430.804	-0.0861733746332	-2.01149528702	3.08147675521	-0.201429150239	0.207113798562
430.85	-0.0793220643174	-2.01188244709	3.08830666692	-0.201794503376	0.200997465216
430.898	-0.0726722554574	-2.0122134922	3.09492291213	-0.20168076731	0.200125754601
430.94	-0.066036838474	-2.0125008755	3.10136199963	-0.200372878383	0.185272785093
430.94	-0.0592361989942	-2.01275250605	3.10757204491	-0.200825066211	0.190306545629
430.972	-0.0525874198395	-2.01295549443	3.11411980139	-0.20164782178	0.199337477371
431.004	-0.0459346872801	-2.01311481213	3.12069212644	-0.201647601283	0.199078297505
431.045	-0.0390786829942	-2.01323324366	3.12746403026	-0.201683597144	0.199168323271
431.087	-0.0324226080297	-2.01330379517	3.13404097696	-0.201722669016	0.199307587759
431.134	-0.0257650818473	-2.0133305553	3.1406228427	-0.201760625467	0.199449967792
431.172	-0.0189045938656	-2.01331226933	-3.13577570029	-0.201800885148	0.199621734552
431.172	-0.0122449940796	-2.01324996878	-3.12918354911	-0.201840179491	0.199786340517
431.22	-0.0055848161099	-2.01314372797	-3.1225873638	-0.201877779589	0.199925231934
431.24	0.00127742139935	-2.01298827407	-3.1157867565	-0.201912312046	0.200080459637
431.285	0.00793733491092	-2.01279273154	-3.10917774426	-0.20192292993	0.200441107269
431.322	0.0145955317254	-2.01255333142	-3.1025618593	-0.201887482897	0.200484132721
431.369	0.0214511439552	-2.01226111598	-3.09574511585	-0.201741679639	0.200877477245
431.413	0.0280916594669	-2.011933155	-3.08912218598	-0.201225027695	0.195255438246
431.413	0.0346921603019	-2.01156757476	-3.08307728196	-0.20000595133	0.180374330338
431.455	0.0415140739578	-2.01114448162	-3.07653311366	-0.201699186483	0.200295684
431.47	0.048152274919	-2.01068841257	-3.06994971872	-0.201611141538	0.199432429287
431.518	0.054787644621	-2.01018865891	-3.06336817486	-0.201640895068	0.199470608544
431.557	0.0616215637523	-2.0096280085	-3.05658421215	-0.201677949406	0.199609466915
431.591	0.0682518570007	-2.00903940903	-3.04999587852	-0.201716548969	0.199720775467
431.63	0.0748792706565	-2.00840701473	-3.04340309932	-0.201756389568	0.199854228034
431.677	0.0817041837886	-2.0077096333	-3.03660568631	-0.201797487431	0.200009556861
431.677	0.0883248017215	-2.00698827026	-3.03000353646	-0.20183604128	0.200158206807
431.723	0.0949415754217	-2.00622307572	-3.02339716114	-0.201871205888	0.200273868377
431.742	0.101754532967	-2.00538883795	-3.01658637804	-0.201907752684	0.200397379846
431.77	0.108362389642	-2.00453465514	-3.00997380192	-0.201921388815	0.200303909439
431.821	0.114964046539	-2.00363687298	-3.00337142933	-0.201888132101	0.199823067389
431.86	0.121756535575	-2.00266678584	-2.99659767617	-0.201698840464	0.197930563371
431.907	0.128316242077	-2.00168655746	-2.99031953245	-0.199943114989	0.179000042488
431.907	0.134846954315	-2.00067066474	-2.98418996385	-0.201065699218	0.199325631221
431.953	0.141600019019	-1.99957272506	-2.97718337864	-0.201507383764	0.201131054145
431.97	0.148162276142	-1.99846027329	-2.97062465744	-0.201660189269	0.199130302769
432.023	0.154715788144	-1.99730488028	-2.96403686772	-0.201642584774	0.199847684369
432.061	0.161460292885	-1.99606925498	-2.9572395347	-0.201671245859	0.200040471107
432.104	0.167999312332	-1.99482595711	-2.95063792637	-0.201710322683	0.200150836291
432.104	0.174531121237	-1.99353928287	-2.94403275872	-0.201750003777	0.200289930565
432.15	0.181253000957	-1.99216826818	-2.93722373589	-0.201790249517	0.200427030194
432.171	0.187769208587	-1.99079358556	-2.93061140629	-0.20182877373	0.200539382336
432.216	0.194277231766	-1.98937560219	-2.92399536981	-0.201864354217	0.200637047291
432.26	0.20097353855	-1.98786940345	-2.91717515567	-0.201896737193	0.200716498304
432.305	0.207463138354	-1.98636381601	-2.91055999162	-0.201880830428	0.200314672473
432.306	0.213941474468	-1.98481566798	-2.90396387017	-0.201811898811	0.199328525696
432.339	0.220595743425	-1.98317903102	-2.89728600208	-0.200962375038	0.189554575418
432.371	0.227001816316	-1.98156052699	-2.89129578835	-0.200453408596	0.184026982247
432.421	0.233436200103	-1.97989208402	-2.88485475494	-0.201687469388	0.198040763505
432.466	0.240063052897	-1.97812704462	-2.87810070217	-0.201679843882	0.198665731808
432.491	0.246480430599	-1.97637205555	-2.8714912169	-0.201405027139	0.203179291229
432.543	0.252873397257	-1.9745767414	-2.86468874229	-0.201530901035	0.201797641634
432.543	0.259464082875	-1.97267776063	-2.85790677307	-0.201708170843	0.199928983422
432.588	0.265847884543	-1.97079197701	-2.85129839257	-0.201710690806	0.200529433191
432.603	0.272219721709	-1.96886384627	-2.84468099494	-0.201743678665	0.200733466545
432.643	0.27877224467	-1.96683288852	-2.83785908055	-0.201784184916	0.200853132631
432.681	0.285119735528	-1.96481860385	-2.83123468531	-0.201819236321	0.200957693168
432.726	0.291454790928	-1.96276196127	-2.82460712943	-0.201855531938	0.201054611412
432.781	0.297968156158	-1.96059887509	-2.81777832287	-0.201863058145	0.200864148858
432.781	0.304275121634	-1.95845715076	-2.81116294957	-0.201826936725	0.200243606469
432.819	0.310564675348	-1.95627508494	-2.80459021995	-0.201574856962	0.19720913444
432.838	0.316996634752	-1.95399714481	-2.79822275576	-0.200002025648	0.179435070159
432.887	0.323229497622	-1.95174575652	-2.79199558094	-0.20181792015	0.199616237697
432.933	0.329476048376	-1.94944338278	-2.78543617229	-0.201712123561	0.198175447345
432.975	0.33589545905	-1.94702872175	-2.77868981655	-0.201728829234	0.19828514507
432.975	0.342110767778	-1.9446435498	-2.77213219058	-0.201740608709	0.198721232466
433.021	0.348310572103	-1.94221795626	-2.76555748876	-0.201727066977	0.199559754639
433.037	0.354676352248	-1.93967821163	-2.75868664016	-0.201236014992	0.207153597095
433.079	0.360823437771	-1.9371755393	-2.75178900218	-0.201568243456	0.202975177856
433.126	0.366973822294	-1.93462329359	-2.74518249635	-0.201773718286	0.20075226592
433.166	0.373292349594	-1.93195134971	-2.73835171946	-0.201779658075	0.201279556298
433.211	0.379408090628	-1.92931650346	-2.73171425756	-0.201810744799	0.201414713639
433.211	0.385507162153	-1.92664070645	-2.72507411152	-0.201839201906	0.201412544577
433.253	0.391772368103	-1.92384152478	-2.71824060331	-0.20181888521	0.200954800986
433.271	0.397833524001	-1.921084462	-2.71163150325	-0.20172267928	0.199649655328
433.304	0.403863165126	-1.91829461057	-2.70519663044	-0.200502943421	0.185652211399
433.345	0.410026138577	-1.91539579521	-2.69895661512	-0.201000103289	0.191193480695
433.397	0.416029148219	-1.91252450101	-2.69240996719	-0.201698144337	0.198769639439
433.448	0.422014577503	-1.9096131915	-2.6858513835	-0.201695853759	0.198509439688
433.448	0.428161944588	-1.90657233767	-2.6790932891	-0.201731280296	0.19862624888
433.486	0.43410973263	-1.90358073847	-2.6725300677	-0.201769627918	0.198782487994
433.504	0.440038656023	-1.90054968411	-2.66596081058	-0.201795177803	0.199065340702
433.545	0.446126722751	-1.89738584695	-2.65917943351	-0.20180632067	0.199579655894
433.587	0.45201511313	-1.89427598772	-2.65257726426	-0.201774420866	0.200647798401
433.631	0.457875320834	-1.89113117959	-2.64583993012	-0.201061219049	0.211293782398
433.671	0.463874423585	-1.88785668237	-2.63863436356	-0.201552960989	0.20480576158
433.671	0.469698096189	-1.88462568354	-2.63199546053	-0.201828256295	0.20150722618
433.714	0.475500098359	-1.88135614073	-2.62534975714	-0.201801334378	0.201577446791
433.738	0.481454143738	-1.87794786349	-2.61851470965	-0.201754453243	0.200843965947
433.779	0.487206657605	-1.87460402185	-2.61194416812	-0.201339011054	0.195846045994
433.818	0.492905128742	-1.87124296663	-2.60580835029	-0.200249984349	0.183471384657
433.844	0.498775861307	-1.86772979679	-2.59920588346	-0.201682533611	0.199294259055
433.887	0.504463667704	-1.86427446067	-2.59263791519	-0.201659212412	0.198837574483
433.934	0.510128995405	-1.86078163874	-2.58607167477	-0.201688873379	0.198895494805
433.979	0.515942769498	-1.85714357918	-2.57930234437	-0.201727365488	0.199036803272
433.979	0.521562818717	-1.85357435213	-2.57272714854	-0.20176456326	0.199188959387
434.019	0.527160231134	-1.84996761408	-2.56614700981	-0.201803791241	0.199340090944
434.038	0.532903305473	-1.84621245838	-2.55936247285	-0.201843533428	0.199528676924
434.082	0.538453757834	-1.84253002738	-2.55277075533	-0.201866207455	0.199858802109
434.123	0.543980078168	-1.83881089232	-2.54616645081	-0.201869609242	0.200360056659
434.169	0.549647710715	-1.83494147137	-2.53933729355	-0.201808415623	0.201720651186
434.214	0.555112287485	-1.83115624696	-2.53251268178	-0.20079995677	0.216042140354
434.214	0.560535055786	-1.82734272142	-2.5254532142	-0.201465076887	0.205688905482
434.261	0.566118279518	-1.82335871584	-2.51863336054	-0.201626535941	0.19940299317
434.27	0.571493063758	-1.81947014104	-2.51227768981	-0.200117290778	0.182641623063
434.304	0.576832511916	-1.81555611399	-2.50607293758	-0.201530105578	0.198378353451
434.347	0.582336103899	-1.81146553833	-2.49927932592	-0.201631670246	0.199293254918
434.388	0.587650324999	-1.80746038011	-2.4927045006	-0.201647142622	0.199208117993
434.436	0.592938783936	-1.80341984138	-2.48612783463	-0.201682978256	0.199306789531
434.481	0.598360485522	-1.79921988025	-2.47934740786	-0.201723158409	0.199450263225
434.483	0.603596259206	-1.79510766358	-2.47276145912	-0.201760856115	0.199586931297
434.524	0.608805705182	-1.79096033525	-2.46617033363	-0.201800213819	0.199751069493
434.538	0.614145202592	-1.78665076322	-2.45937434054	-0.201840019846	0.199920313606
434.571	0.619300394577	-1.78243260995	-2.45277404691	-0.201876767248	0.200045682536
434.614	0.624428444318	-1.77817982413	-2.44616939103	-0.201911716566	0.200186756868
434.648	0.629682988955	-1.77376232387	-2.43935753603	-0.201924892073	0.200502194279
434.699	0.634753682761	-1.76944096297	-2.4327399203	-0.201877147071	0.200563299468
434.734	0.639793559988	-1.76508821079	-2.42611606077	-0.201699770508	0.20121943436
434.772	0.644936878575	-1.76058674417	-2.41910795366	-0.199898085868	0.211910611717
434.772	0.649864081345	-1.75621422436	-2.41249351469	-0.200470365514	0.194289437253
434.822	0.654807295811	-1.75176732516	-2.4059525478	-0.201616234904	0.199500280826
434.838	0.659873231629	-1.74714838003	-2.39916601799	-0.201607108206	0.199566084551
434.889	0.664760268875	-1.742632351	-2.39257899498	-0.201640379278	0.199649521062
434.939	0.669618215174	-1.73808352068	-2.38598920931	-0.20167852705	0.199752878509
434.939	0.674592761916	-1.7333626441	-2.37919600462	-0.201715796181	0.199871863163
434.985	0.679391056519	-1.72874757764	-2.37259853776	-0.201756134897	0.200009623894
435.004	0.684159604205	-1.72410015054	-2.36599680527	-0.201796008239	0.200147937464
435.055	0.689041264787	-1.71927824753	-2.3591906322	-0.201835700681	0.200286278463
435.101	0.693748617508	-1.71456571238	-2.35258055793	-0.201870895804	0.200393706123
435.139	0.698425459693	-1.70982139303	-2.34596659895	-0.201905893254	0.200503262789
435.139	0.703211640328	-1.70490049642	-2.33915127025	-0.20191414802	0.2003412475
435.183	0.707824517653	-1.70009366617	-2.33254845458	-0.201879512188	0.19976672526
435.201	0.712403462117	-1.69525875109	-2.32597923766	-0.201658004412	0.197478973883
435.25	0.717069430021	-1.69026774756	-2.31951350144	-0.200415104465	0.184776832433
435.302	0.721572664482	-1.68538906677	-2.31309233606	-0.201692935279	0.201777929901
435.342	0.726038601293	-1.68048541205	-2.30619094088	-0.200204932617	0.219302412015
435.342	0.730593561973	-1.6754104654	-2.29889291706	-0.201303433156	0.204108627057
435.386	0.735004160279	-1.6704275628	-2.29229924848	-0.201649386786	0.199928329509
435.404	0.739382232681	-1.66541524132	-2.28569789242	-0.201668469218	0.200191863062
435.437	0.743858917488	-1.66022016353	-2.27889095111	-0.201709234278	0.200321554628
435.486	0.748170779033	-1.65514795077	-2.2722806684	-0.201749965056	0.200441690288
435.525	0.75244975843	-1.65004645081	-2.26566708112	-0.201788701983	0.200574733546
435.572	0.756823760444	-1.64475996549	-2.25884970847	-0.20182788335	0.200685723675
435.572	0.761035249027	-1.6395996862	-2.25222925608	-0.201864207736	0.200781539025
435.61	0.765213114449	-1.63441084203	-2.24560562921	-0.20189316298	0.200818170921
435.64	0.769481579402	-1.62903590434	-2.23878776493	-0.201873524038	0.200362554649
435.684	0.773588578173	-1.62379240748	-2.23219098234	-0.201795350249	0.19927210365
435.726	0.777654889061	-1.61853106504	-2.22572142963	-0.200918509207	0.18920916494
435.76	0.78179696619	-1.61309991441	-2.2192901476	-0.201668222056	0.197537805669
435.805	0.785799790948	-1.60777890673	-2.21272162141	-0.201723796871	0.198379273681
435.805	0.789766285108	-1.602433672	-2.20616439786	-0.201685145522	0.198703818249
435.844	0.793815111998	-1.59690140668	-2.19936511794	-0.201489941335	0.202145172064
435.871	0.797690312855	-1.59152930075	-2.1923240148	-0.200058404284	0.222772879547
435.912	0.801521352778	-1.58613625902	-2.18514743332	-0.201240190068	0.206576110326
435.953	0.805453725006	-1.58051813031	-2.17832561626	-0.201714604608	0.200644535032
435.997	0.809234460907	-1.57503871687	-2.17170357276	-0.201741542097	0.200906147516
436.044	0.812979397603	-1.56953355375	-2.16507701891	-0.2017802905	0.201021312981
436.044	0.816800230033	-1.56383474702	-2.15824668269	-0.201818616763	0.20109899638
436.081	0.820472005744	-1.55827775214	-2.15161425599	-0.201854144872	0.201199886483
436.104	0.824107221601	-1.5526959545	-2.14498284706	-0.201856974305	0.200957719277
436.141	0.827813470328	-1.5469205186	-2.13816464571	-0.201818605752	0.20028955552
436.182	0.831371475093	-1.54129425212	-2.13159266336	-0.201535475223	0.196904184204
436.218	0.83487981357	-1.53566657054	-2.12530803376	-0.200936636019	0.190052767502
436.256	0.838468182982	-1.52982604474	-2.11858848315	-0.201689729316	0.19828427946
436.307	0.841915003572	-1.52413113746	-2.11203230572	-0.201712418388	0.19827188836
436.307	0.845324518963	-1.51841358235	-2.10548052688	-0.201737082098	0.198380351657
436.339	0.848798387752	-1.51249901078	-2.09872109406	-0.201751137124	0.198805102255
436.371	0.852131792883	-1.50673596943	-2.09214349507	-0.201740163209	0.199550373731
436.416	0.855426075792	-1.50095366639	-2.08550801435	-0.20146595439	0.204095361761
436.442	0.858760527355	-1.49500483282	-2.0781321292	-0.199994374689	0.225395835318
436.481	0.861952190262	-1.48920980895	-2.07091413609	-0.201354227155	0.206712438352
436.533	0.865124051724	-1.48335581647	-2.06427432951	-0.201781191233	0.201387624295
436.577	0.868351859528	-1.47730159209	-2.0574309361	-0.201808189899	0.201586567671
436.577	0.871445494986	-1.47140358536	-2.05078578156	-0.201831089119	0.201527232403
436.619	0.874499873167	-1.46548519557	-2.04414950733	-0.201814448303	0.201055730721
436.639	0.877605185735	-1.45936778881	-2.03733574954	-0.201722445725	0.199797838828
436.682	0.880573872275	-1.45342270937	-2.03088192805	-0.200782360005	0.188964246901
436.721	0.883503670773	-1.44745984234	-2.02444713647	-0.201866934188	0.200931637504
436.772	0.886486776623	-1.44128466359	-2.0176778515	-0.201687323115	0.198740138575
436.772	0.889342018096	-1.43527219544	-2.01111616639	-0.201701204014	0.19864966939
436.807	0.892158086043	-1.42924036629	-2.0045524068	-0.201735958258	0.198770590609
436.838	0.895018484238	-1.42300551603	-1.99778553886	-0.20177351797	0.198918598904
436.883	0.89775476685	-1.41693467648	-1.99121239399	-0.201804269738	0.199143778833
436.931	0.900451311102	-1.41084542657	-1.984628514	-0.201818249366	0.199602744466
436.976	0.903187521047	-1.40455321932	-1.97782617339	-0.201801613293	0.200478065623
436.976	0.9058007165	-1.39843251668	-1.97114537978	-0.201369284442	0.20716874741
437.022	0.908355318035	-1.39233173068	-1.96386904782	-0.199949670925	0.227567977979
437.038	0.910941255055	-1.38602336978	-1.95640688309	-0.201519764446	0.205895094464
437.074	0.913424083301	-1.37984376003	-1.94975624131	-0.201799891207	0.201668174244
437.116	0.915865448022	-1.37364875201	-1.94311786117	-0.201753508811	0.201038546569
437.158	0.918336915811	-1.36725365685	-1.93633560745	-0.201390098923	0.196586634679
437.209	0.920688365895	-1.36104685108	-1.92995264273	-0.201572018301	0.198499363352
437.209	0.923006112285	-1.35480619043	-1.92335242103	-0.201680107341	0.199434548796
437.251	0.925350426258	-1.34836244497	-1.91658007323	-0.201660585601	0.198968266722
437.271	0.927584150464	-1.34209277864	-1.9100089972	-0.201694283817	0.19905849132
437.316	0.929776958403	-1.33580760012	-1.90343403116	-0.201731829459	0.199190844925
437.35	0.931993297398	-1.3293159397	-1.89665494891	-0.201769033394	0.19932894334
437.395	0.934102665465	-1.32299988949	-1.89007037954	-0.201808609404	0.199486376234
437.437	0.936170732065	-1.31666900486	-1.88348123344	-0.201847092634	0.199655542511
437.473	0.938258097306	-1.31013114611	-1.87668698769	-0.201876142698	0.199910800233
437.474	0.940241666158	-1.3037717108	-1.87008158764	-0.20188371195	0.200353046696
437.513	0.942183072051	-1.29739948727	-1.86345658419	-0.201855645581	0.201285943659
437.537	0.944137279864	-1.29082736308	-1.85652341216	-0.201209943728	0.210507932645
437.581	0.94597533721	-1.28448002706	-1.84915814683	-0.199884272702	0.227771079292
437.622	0.947768708705	-1.27811139314	-1.84197851402	-0.201402197325	0.202216880731
437.673	0.94957861209	-1.27151184928	-1.83534243377	-0.200937070435	0.192022729128
437.673	0.951295522476	-1.26508489916	-1.82877454264	-0.201581185992	0.199112622725
437.718	0.952970512469	-1.25864465118	-1.82218794552	-0.201631381372	0.199417119403
437.737	0.954651872845	-1.25199781493	-1.81540876964	-0.201650896633	0.199374184442
437.783	0.956240873452	-1.24553478226	-1.80882680546	-0.20168712199	0.199481292508
437.826	0.95778755029	-1.23906035758	-1.80224082099	-0.201724931995	0.199595607486
437.866	0.959336711632	-1.23237808236	-1.79545039095	-0.201765280972	0.199741580191
437.904	0.960797118099	-1.22588130762	-1.78885478326	-0.201804910834	0.199898425001
437.904	0.962214863914	-1.21937394935	-1.78225454657	-0.201843331067	0.200050867019
437.942	0.963630840338	-1.21265863267	-1.77545007305	-0.201880576511	0.20016795414
437.971	0.964961645234	-1.20613068116	-1.76884142921	-0.201916399082	0.200307615573
438.005	0.966249446514	-1.19959320849	-1.7622278887	-0.201935396637	0.200518218836
438.062	0.967530929737	-1.19284936881	-1.75541063989	-0.201890187535	0.200480245681
438.083	0.968730274464	-1.18629788156	-1.74879292154	-0.20177436873	0.200665028077
438.118	0.969883409333	-1.17975145576	-1.74209531299	-0.200726874704	0.209233810606
438.137	0.971015552195	-1.17305065989	-1.73453231605	-0.199919064185	0.228936102785
438.187	0.972068986369	-1.16651665916	-1.72742070883	-0.201579658523	0.200291348169
438.222	0.973083724407	-1.15994002398	-1.72083650776	-0.20161355378	0.199704994417
438.266	0.974083833814	-1.15315747575	-1.71404399432	-0.201643058296	0.199843371526
438.314	0.975010600572	-1.14656704077	-1.70744823791	-0.201679640974	0.199920209434
438.314	0.975894027196	-1.13996949965	-1.70084926231	-0.201718874726	0.200029480394
438.355	0.97675881559	-1.13316487476	-1.69404644782	-0.201759635509	0.200178855828
438.37	0.977554008029	-1.12655374404	-1.68743986933	-0.201799558484	0.200306622628
438.404	0.978305618571	-1.11993639547	-1.68082952493	-0.20183817621	0.200425826296
438.456	0.979034343266	-1.11311233705	-1.67401481213	-0.201875302162	0.200536345377
438.487	0.979697245821	-1.10648329332	-1.66739673568	-0.201910021717	0.200631905582
438.538	0.980316330266	-1.09984931311	-1.66077850109	-0.201915329116	0.200436928603
438.58	0.980908229458	-1.0930106901	-1.65397185267	-0.20188653594	0.199897866521
438.58	0.981438320288	-1.0863713472	-1.64738849973	-0.201770609414	0.198712944707
438.626	0.981924231405	-1.07973789294	-1.64089625806	-0.201559073603	0.19703171838
438.638	0.982380244675	-1.07289213093	-1.63413284967	-0.201861024433	0.196273558932
438.678	0.982778378744	-1.06624722994	-1.62757368577	-0.201615571309	0.199598738512
438.729	0.983132243918	-1.05960229094	-1.62098963605	-0.201702505944	0.198705586924
438.763	0.9834514246	-1.05275249381	-1.61420861415	-0.201664729839	0.199806949041
438.803	0.983716726503	-1.04610215534	-1.60761115766	-0.201679932696	0.200153668221
438.839	0.983938154599	-1.03944954515	-1.60100459908	-0.201712452045	0.20036027558
438.839	0.984120346802	-1.03259280682	-1.59419336594	-0.20175390543	0.200495480632
438.875	0.984252521502	-1.02593553399	-1.5875788013	-0.201791818322	0.200643687221
438.904	0.984340655631	-1.01927641186	-1.58096086664	-0.201828509181	0.200738835143
438.938	0.984385358037	-1.0124139146	-1.57413851535	-0.201866106658	0.200846561609
438.99	0.984383962494	-1.00575222289	-1.56751450759	-0.201881280349	0.20075934707
439.028	0.984338464287	-0.999091053155	-1.5609001695	-0.201853396049	0.200245829131
439.073	0.984245608173	-0.992230906548	-1.55411767844	-0.201690668031	0.198190205681
439.073	0.984112870133	-0.985598930783	-1.54782802553	-0.199980656972	0.178935502135
439.122	0.983940056234	-0.978988518847	-1.54176980018	-0.201344689681	0.194082012803
439.138	0.983716147099	-0.972133402153	-1.53502405522	-0.201723139244	0.198120802004
439.181	0.983454788369	-0.965481856209	-1.52847698528	-0.201719916046	0.198284139994
439.213	0.983150152076	-0.958831913336	-1.52191804408	-0.201722318306	0.198885609355
439.259	0.982790667821	-0.951984346268	-1.51511696754	-0.201560958128	0.20175651962
439.307	0.982396364532	-0.945342302391	-1.50847818932	-0.201898436372	0.197599311689
439.349	0.981958246731	-0.938699338426	-1.50187301872	-0.201726972746	0.200599383526
439.349	0.981460868822	-0.931857988595	-1.49505335834	-0.201751093315	0.200914415712
439.406	0.980933443695	-0.925220529699	-1.48842612275	-0.201784964852	0.201080609459
439.406	0.980361947025	-0.918585641669	-1.48179563581	-0.201820943702	0.201165179817
439.443	0.979727017056	-0.911752687836	-1.47496107175	-0.20185413172	0.201261062315
439.486	0.97906608574	-0.905124706828	-1.46833207445	-0.201840877118	0.200863249345
439.53	0.978361412646	-0.898502393401	-1.46172149784	-0.201774659056	0.199900545316
439.571	0.977591432116	-0.891694044826	-1.45502547293	-0.200944945697	0.190314335999
439.571	0.976807594818	-0.885134808605	-1.44902695407	-0.200373760524	0.183872523708
439.605	0.975977943713	-0.87854168785	-1.44259084352	-0.201681411875	0.19832188085
439.638	0.975076503588	-0.87174332954	-1.43583825021	-0.201701423081	0.198297652662
439.685	0.974157600335	-0.865150216412	-1.42928531001	-0.20173746336	0.19840297697
439.703	0.973195356821	-0.858562278307	-1.42272773539	-0.201765622571	0.19866385233
439.764	0.972158775556	-0.851780837742	-1.41595990082	-0.201779877667	0.199112362421
439.821	0.9711090892	-0.84520547289	-1.40937420981	-0.201769164028	0.199908786937
439.821	0.970016550273	-0.838641296861	-1.40271232006	-0.201418656526	0.205470898269
439.863	0.968844449619	-0.83188764905	-1.39581013751	-0.201939842561	0.198766161883
439.871	0.967661849591	-0.825334453362	-1.38917976671	-0.201794385595	0.201301795744
439.911	0.966435692829	-0.818788764111	-1.38253985694	-0.201812757682	0.201605201218
439.966	0.965126857248	-0.812052924187	-1.37569434976	-0.201818945037	0.201449260713
440.012	0.963812594257	-0.805524410921	-1.36906323635	-0.201786198387	0.200819645263
440.012	0.962456004683	-0.79900785282	-1.36247479478	-0.201539998442	0.197840163887
440.057	0.961022513128	-0.792337990847	-1.35609663768	-0.199919234012	0.179412728615
440.07	0.959590369072	-0.785871237526	-1.34988612164	-0.201714702024	0.199432374519
440.114	0.958108883253	-0.779381929392	-1.34331248065	-0.201670710584	0.198692525466
440.146	0.956538156981	-0.772706881145	-1.33655223885	-0.201695346241	0.198697996823
440.186	0.954970270924	-0.766237506227	-1.32998741585	-0.201732050398	0.198833515424
440.212	0.953359668622	-0.75977746462	-1.32341802017	-0.201771101461	0.198979596419
440.248	0.951655575103	-0.753131698749	-1.31664483556	-0.201809961251	0.199148432433
440.272	0.949958307764	-0.746691601658	-1.31006407342	-0.201835381759	0.199476617275
440.316	0.948218582933	-0.740262379314	-1.30347096918	-0.201845825317	0.199962688739
440.356	0.946382280229	-0.733650562432	-1.2966585746	-0.201807438776	0.201022861468
440.399	0.944558723842	-0.727253219184	-1.2899178621	-0.201214705382	0.209929319603
440.443	0.942691622014	-0.720870118002	-1.28314049927	-0.201998422576	0.199313233625
440.443	0.940720836982	-0.71429738225	-1.27630336653	-0.201790479608	0.201320206011
440.475	0.938765767651	-0.707933203217	-1.26968050247	-0.201679651264	0.200237631168
440.504	0.936774159425	-0.701596323693	-1.26323165079	-0.200443274402	0.18595376362
440.552	0.934692504921	-0.695116017934	-1.25701275785	-0.200839405982	0.190348711738
440.6	0.932617330361	-0.688796416857	-1.25047218622	-0.201651494263	0.199223351448
440.635	0.930499619989	-0.682487537478	-1.24390144071	-0.201654141477	0.199000863442
440.677	0.928274201897	-0.676001509445	-1.23713118373	-0.20168961782	0.199096301437
440.677	0.926071926512	-0.66971977558	-1.23055572348	-0.201728256694	0.199239347726
440.709	0.923827999974	-0.66345160974	-1.22397526227	-0.201765697864	0.199385796806
440.738	0.921472560872	-0.657007980946	-1.21718994955	-0.2018058736	0.199559194682
440.783	0.919144211225	-0.650768200288	-1.21059947478	-0.201845350934	0.199723046882
440.83	0.916774373275	-0.644542872191	-1.20400468074	-0.201882092384	0.199870592909
440.879	0.914289499085	-0.638144565054	-1.19720298632	-0.201901010253	0.200200025347
440.879	0.911836028951	-0.631950503584	-1.19058815315	-0.201900788013	0.20071011495
440.916	0.909342375038	-0.625773681624	-1.18395565973	-0.201798074677	0.201671520374
440.937	0.906735557546	-0.619441023269	-1.17694495326	-0.200923407971	0.212471269181
440.975	0.9041651256	-0.613317991154	-1.17021780279	-0.20144039944	0.193253549793
441.011	0.90156694158	-0.60723726507	-1.1641151519	-0.200054945053	0.181789473024
441.063	0.898841431317	-0.600968490898	-1.15755743575	-0.201685048411	0.200263326124
441.099	0.896147790211	-0.594884042099	-1.15097497109	-0.201617387281	0.199323070877
441.141	0.893414068924	-0.588817193234	-1.14439642976	-0.20164498987	0.199386039956
441.141	0.890555369802	-0.582584469503	-1.13761530936	-0.201683785923	0.199512232849
441.19	0.887739900197	-0.576552695647	-1.13102911356	-0.201722723558	0.199642319749
441.204	0.884884260009	-0.570538571513	-1.12443802891	-0.201761995549	0.199786178405
441.238	0.881900157869	-0.564360966878	-1.11764191252	-0.201802905852	0.199952596388
441.286	0.878963225507	-0.55838358338	-1.11104074102	-0.201841075403	0.200108218827
441.325	0.875986410567	-0.552424758422	-1.10443517488	-0.201876746962	0.200235619219
441.365	0.872877751911	-0.546305057902	-1.0976251192	-0.201913174902	0.200363763681
441.414	0.86982032315	-0.540384952599	-1.09101273993	-0.201927368458	0.200300636255
441.414	0.866724125502	-0.534485743179	-1.08440677294	-0.201880962298	0.200018892126
441.447	0.863494892086	-0.528431983208	-1.07762210524	-0.201696843039	0.198495259755
441.467	0.860334259473	-0.522598697644	-1.07128982405	-0.200040979321	0.182111390393
441.511	0.857154510203	-0.516815773577	-1.06483118835	-0.200373898383	0.213498375903
441.552	0.853817392063	-0.510847271567	-1.05777028755	-0.201755922279	0.197833515662
441.589	0.850530842032	-0.505061114019	-1.05119063811	-0.20162106797	0.199622816576
441.615	0.847206305503	-0.499296831479	-1.04459920471	-0.201639476637	0.199881048675
441.67	0.843740910095	-0.493380120251	-1.03780287013	-0.201677032556	0.199969319828
441.695	0.840338464391	-0.487659090829	-1.03120303979	-0.201716734677	0.200075775746
441.745	0.836897723938	-0.481959650018	-1.02459963672	-0.201755739738	0.200223543717
441.745	0.833312794574	-0.476110380905	-1.01779233543	-0.20179649712	0.200353592473
441.791	0.829794697787	-0.470455669486	-1.0111815333	-0.201834773638	0.200468747221
441.804	0.826238708232	-0.464823437533	-1.00456695968	-0.201870235808	0.200569617252
441.838	0.822535490491	-0.459044365503	-0.997748305291	-0.201903384912	0.200645532351
441.877	0.818903432376	-0.453459298949	-0.991134160521	-0.201889517822	0.200269887313
441.919	0.815235169176	-0.447899274623	-0.984538106103	-0.201827690067	0.199354858884
441.955	0.811422779112	-0.442202983235	-0.977844157502	-0.20110349107	0.19105113364
442.006	0.807708877415	-0.43672946951	-0.971769079845	-0.200705354229	0.187024076845
442.006	0.803940094224	-0.431249748775	-0.965279443516	-0.201668571061	0.198510005959
442.038	0.80001787138	-0.425626770253	-0.958491335045	-0.201504371941	0.201252551386
442.071	0.7961874102	-0.420214809787	-0.951562618618	-0.200509597937	0.215642919693
442.109	0.792314844982	-0.414824276223	-0.944721838039	-0.201806486035	0.197964649022
442.147	0.788276263242	-0.409281936082	-0.93792442342	-0.201683383032	0.200243328393
442.194	0.784320313823	-0.403928781369	-0.931313246836	-0.201709494634	0.20053312057
442.246	0.780328451724	-0.398601082344	-0.924697107888	-0.201749117435	0.200661709306
442.246	0.776178119722	-0.393138730752	-0.917877101844	-0.201789979219	0.200777051605
442.282	0.772113612269	-0.387863322733	-0.911254582282	-0.201825295807	0.200880570177
442.304	0.768013565171	-0.382614083596	-0.904628844452	-0.201861963092	0.200976349861
442.347	0.763752475647	-0.377233670144	-0.897801483639	-0.201871508382	0.200805321303
442.39	0.759582031528	-0.372039831524	-0.891186794962	-0.201838707558	0.200222091094
442.431	0.755379317727	-0.366875770596	-0.884609340711	-0.201630725141	0.1976940271
442.478	0.751033816491	-0.361606300588	-0.878170492799	-0.200290138744	0.182464905531
442.478	0.74677909492	-0.356513219735	-0.871843567414	-0.201862504979	0.199834332628
442.526	0.742477699267	-0.351432105553	-0.865289241081	-0.201718330834	0.198153908416
442.538	0.738011683195	-0.346227057986	-0.858540295781	-0.201719776041	0.198419994259
442.577	0.733643514073	-0.34120400059	-0.851975088834	-0.201713925299	0.199103866939
442.608	0.729244380785	-0.336211247553	-0.845356213833	-0.20146112657	0.203327842166
442.641	0.724696507018	-0.331121561441	-0.838089151335	-0.20040518232	0.218728326224
442.679	0.720239135134	-0.326205252747	-0.831181594325	-0.201850450129	0.199023098016
442.724	0.715734218377	-0.321302792241	-0.824562711896	-0.201752314555	0.201004037185
442.776	0.711058694004	-0.316282872305	-0.81773003495	-0.201780676482	0.201245062625
442.776	0.706487274655	-0.311440501861	-0.811094396494	-0.201816688843	0.20133127209
442.817	0.701883065544	-0.306627781737	-0.804456244654	-0.201847624757	0.201360292384
442.838	0.697105947867	-0.301701194979	-0.79762395486	-0.20182931804	0.200911318408
442.876	0.692438197066	-0.296951726926	-0.791013722113	-0.201748849004	0.199779963638
442.909	0.687748081456	-0.292240839414	-0.784540315415	-0.200789626272	0.188737813904
442.953	0.68290359252	-0.287436821312	-0.778170693877	-0.201382997769	0.195303581597
442.997	0.678145971856	-0.282780541453	-0.77159877812	-0.201706716646	0.198690776682
443.037	0.673358512512	-0.278156156977	-0.76504173536	-0.201704701824	0.198439399917
443.073	0.668393827634	-0.273424054237	-0.758285629109	-0.201740201511	0.198551425794
443.073	0.663543921116	-0.26886259743	-0.751723760148	-0.201771624238	0.198775007999
443.117	0.658663728653	-0.264332664993	-0.745151350456	-0.201783560608	0.199212241349
443.138	0.653604569629	-0.259699102949	-0.738360914016	-0.201769885509	0.200063449892
443.179	0.648667431981	-0.255237134252	-0.73169647953	-0.201379416599	0.206190406257
443.227	0.643725439118	-0.25083280056	-0.724524150292	-0.200340047228	0.221347275119
443.269	0.638588174149	-0.24632145018	-0.717353722543	-0.201878563648	0.200274004681
443.309	0.633554177198	-0.241961279438	-0.710713177771	-0.201812351568	0.201702860104
443.309	0.628491303037	-0.237634646338	-0.704065460195	-0.201808314338	0.201559897608
443.342	0.623245589926	-0.233212586985	-0.697230561113	-0.201771311778	0.20086458
443.368	0.618128663186	-0.228956889942	-0.690646528681	-0.201462724416	0.197122432146
443.419	0.613006811842	-0.224752623176	-0.684395698757	-0.200692382476	0.188249728105
443.465	0.607683743945	-0.220440615195	-0.677698910513	-0.201629205665	0.19855945964
443.49	0.602484296112	-0.216285909926	-0.671130506233	-0.201669317248	0.198785088745
443.533	0.597257471985	-0.212165286807	-0.664565351672	-0.20169785027	0.198835767708
443.578	0.591843258487	-0.207955151364	-0.657797246344	-0.201735745899	0.198977110912
443.578	0.586560257737	-0.203903302726	-0.65122345891	-0.201772170213	0.199124689447
443.623	0.581249806969	-0.199885599214	-0.644644997778	-0.201810380412	0.19929371132
443.638	0.575750015386	-0.195782135722	-0.63786127624	-0.201841892761	0.199561519175
443.67	0.570385045338	-0.191834837704	-0.631265656645	-0.201852375504	0.200031856715
443.708	0.564994270842	-0.187923149613	-0.624651063242	-0.201825738312	0.200944408797
443.744	0.559418526556	-0.183933739209	-0.617730517863	-0.201228937265	0.209957667641
443.773	0.554011678153	-0.180123374243	-0.610443071976	-0.20029993824	0.223103604843
443.817	0.548560108196	-0.17634045783	-0.603464042392	-0.201874433522	0.200402335544
443.849	0.542898113282	-0.172468218976	-0.596641462494	-0.201674956042	0.200229931914
443.898	0.537391382773	-0.168755256488	-0.590198029015	-0.200563465285	0.187528925314
443.936	0.531866434992	-0.165081088931	-0.583831745786	-0.201853998882	0.201841083578
443.979	0.52613114802	-0.161321998656	-0.577040774839	-0.201641166128	0.199254524698
443.979	0.520541121766	-0.157711218768	-0.570466750492	-0.201656332838	0.199152488846
444.014	0.514926779671	-0.154136826716	-0.563891031177	-0.201691749628	0.19925101533
444.038	0.509116896115	-0.150492222864	-0.557111625545	-0.201730778821	0.199386301984
444.073	0.503453419256	-0.146991983173	-0.550526690971	-0.20176840743	0.19952683412
444.115	0.497766048299	-0.14352854312	-0.543936724392	-0.201807763052	0.199694096044
444.149	0.491881567422	-0.13999883623	-0.537142243555	-0.201847804107	0.199855760365
444.182	0.486146384971	-0.136610707071	-0.53054335418	-0.201884036222	0.199988170557
444.228	0.480388138892	-0.133260030573	-0.523938992009	-0.201907987351	0.200248061304
444.268	0.474432070139	-0.12984750783	-0.517122274918	-0.201910080478	0.200717203275
444.299	0.468629928634	-0.126574800007	-0.51049091011	-0.20182824681	0.201370714487
444.334	0.462815321171	-0.12334543233	-0.50374187795	-0.200982636295	0.212370851008
444.377	0.456844996956	-0.120085173836	-0.496241937656	-0.199675555764	0.216468231671
444.377	0.451025982301	-0.116961286259	-0.489678209375	-0.201200332275	0.193166741801
444.418	0.44514233275	-0.113852107088	-0.483086629175	-0.201640956988	0.199869895828
444.443	0.439059658642	-0.110689655658	-0.476299428674	-0.201615289509	0.199477406984
444.471	0.433135182076	-0.107659589596	-0.46971506488	-0.201648753377	0.199551422733
444.507	0.427189941621	-0.104668125556	-0.463127686027	-0.201685333626	0.199684807925
444.545	0.421042995274	-0.101626524578	-0.456336573984	-0.201724341382	0.199800037697
444.578	0.41505616764	-0.0987138740049	-0.449740598082	-0.201764573808	0.199943947382
444.624	0.409049228431	-0.0958402994292	-0.443140002118	-0.201804324973	0.200093107728
444.648	0.402839506172	-0.0929207073635	-0.436334706354	-0.201843793503	0.20023938478
444.682	0.39679255663	-0.0901270122073	-0.429725303079	-0.201879430289	0.200358648636
444.728	0.390726277385	-0.0873729091386	-0.423111886912	-0.201914484111	0.200472860618
444.759	0.384456497747	-0.0845770365283	-0.416296338639	-0.201925048694	0.200350243553
444.797	0.378353578086	-0.0819045248807	-0.409690138203	-0.20188390381	0.199993247273
444.843	0.372235607681	-0.0792734410625	-0.403104061866	-0.201720747175	0.198595853716
444.843	0.365932115012	-0.0766115906851	-0.396501355785	-0.200827759164	0.191237956312
444.885	0.359801744089	-0.0740698852925	-0.38974858346	-0.200424044607	0.21583993622
444.898	0.353690612211	-0.071587675433	-0.382339234666	-0.199928446872	0.223477123019
444.942	0.347343163137	-0.0690639870524	-0.375201597086	-0.201699706042	0.198844628689
444.984	0.3411430227	-0.0666473441095	-0.368606357998	-0.201643909762	0.200016302235
445.013	0.334926383654	-0.064271381862	-0.362004768641	-0.201676335147	0.200124538604
445.049	0.328503995532	-0.0618659889195	-0.355199462392	-0.201717931845	0.200251165927
445.098	0.322253860526	-0.0595727875214	-0.348590870663	-0.201758156845	0.200379827354
445.135	0.315987614415	-0.0573205585706	-0.341978868219	-0.201797085852	0.20050970502
445.135	0.30951493994	-0.0550430878826	-0.335162981802	-0.20183659031	0.200618432214
445.188	0.303216871811	-0.0528744889821	-0.328543797286	-0.201872945978	0.200719271135
445.204	0.296903605171	-0.0507473007328	-0.321921310095	-0.20190469438	0.200781031845
445.242	0.290384265686	-0.0485993617638	-0.315103459587	-0.201887992819	0.200360523586
445.274	0.284043798641	-0.0465574352949	-0.308503537407	-0.201832821939	0.199510949792
445.321	0.277696144255	-0.0445586386974	-0.301978360481	-0.201345080302	0.19384320792
445.367	0.271152284639	-0.0425452910728	-0.295366833839	-0.201948993682	0.200730410665
445.402	0.264775643713	-0.0406297078587	-0.288794994523	-0.201707903133	0.198580739706
445.437	0.258389415577	-0.0387568705516	-0.282220587809	-0.201609286366	0.199840518036
445.469	0.251813818734	-0.0368761009666	-0.275187061093	-0.200227315404	0.219968539477
445.495	0.245459562952	-0.0351090820028	-0.267745370996	-0.200041489112	0.222990907275
445.53	0.239054908534	-0.0333781415573	-0.260840046366	-0.201725739566	0.199889418519
445.561	0.232422398889	-0.0316337050501	-0.254024052545	-0.201711843316	0.200688366272
445.606	0.225972835668	-0.0299836179508	-0.247402660273	-0.201749804357	0.200834928316
445.606	0.219511371903	-0.0283759991041	-0.240778036958	-0.201789742841	0.200940946839
445.643	0.212841934872	-0.0267641970144	-0.233949594436	-0.201827594704	0.201037499819
445.67	0.20635714566	-0.0252431307404	-0.227318734523	-0.201864062572	0.201136297008
445.717	0.199861673871	-0.0237649272175	-0.220687974585	-0.201870869054	0.200932283209
445.759	0.193159778047	-0.0222870844889	-0.21386851538	-0.20184137942	0.200365023266
445.793	0.186647678851	-0.0208964692128	-0.207278579298	-0.20169626585	0.198544589572
445.836	0.180139192981	-0.0195510949761	-0.200836766945	-0.201481449111	0.196001007612
445.876	0.173411947999	-0.0182069695467	-0.194062580276	-0.201743348974	0.198661473055
445.876	0.166875198166	-0.0169461799969	-0.187507091276	-0.201724269531	0.198218408238
445.909	0.160330465368	-0.0157282790871	-0.180954522638	-0.201734309673	0.198468861461
445.938	0.15357899662	-0.0145183416863	-0.174189823342	-0.201735842367	0.199054072674
445.976	0.147019382187	-0.0133879448257	-0.167592101236	-0.201638380105	0.201018413331
446.013	0.140473348955	-0.0123045380974	-0.16067513675	-0.200074894349	0.223692898212
446.05	0.133760671456	-0.0112448256629	-0.152965453376	-0.200194504887	0.222542388322
446.092	0.127193917509	-0.0102577164139	-0.146095950199	-0.201743173579	0.20137096613
446.113	0.120603063907	-0.00931187958824	-0.139459886643	-0.201780854433	0.201405351744
446.155	0.113805077529	-0.00838300980394	-0.132617565987	-0.201818271611	0.201511406328
446.207	0.107199996228	-0.00752581750045	-0.125974008654	-0.201846103956	0.201485393901
446.207	0.100589270336	-0.00671249302458	-0.119337888682	-0.20183162954	0.201071764199
446.255	0.0937736938052	-0.00592040462293	-0.112518414657	-0.201780605088	0.200265035355
446.271	0.0871590141539	-0.00519616866221	-0.105966429917	-0.201382533307	0.195542042848
446.308	0.0805392078105	-0.00451535217023	-0.0994134654965	-0.201723483563	0.19914870834
446.341	0.0737127671091	-0.0038594141456	-0.0926497976452	-0.201700542902	0.198707324815
446.378	0.0670828533085	-0.0032669562039	-0.0860891610933	-0.201711635865	0.198589398541
446.415	0.0604483771165	-0.00271795648361	-0.0795269485369	-0.201746519287	0.198707236121
446.453	0.0536081332132	-0.00219779564201	-0.072761523474	-0.201782395997	0.198861124019
446.475	0.0469650176226	-0.00173717171564	-0.0661868045036	-0.201801704265	0.199255489196
446.504	0.0403182422795	-0.00132006140027	-0.059613839548	-0.201827606534	0.199400066922
446.559	0.0334672211206	-0.000935910174054	-0.052819928633	-0.201826635414	0.200038628812
446.594	0.0268159634333	-0.000607747118237	-0.0462010260217	-0.201750276783	0.201687968436
446.63	0.0201625857266	-0.000324074815568	-0.0395670325111	-0.201823489447	0.201191631132
446.684	0.0133050784586	-7.77517211362e-05	-0.0327255399104	-0.201829124233	0.201616013538
446.684	0.00664805624512	0.000116442980026	-0.0260826681683	-0.201799736386	0.201451456808
446.717	-8.79027889936e-06	0.000266449301344	-0.0194552190953	-0.201735945669	0.200518776185
446.738	-0.00685893076569	0.000375429165495	-0.0127391418954	-0.200938006153	0.191236150489
446.78	-0.0134639840405	0.000438609305545	-0.00672333585067	-0.200312202033	0.184121757231
446.822	-0.020107783566	0.000460610193433	-0.000277692665369	-0.201636060673	0.198742728914
446.87	-0.0269645033576	0.000437652931219	0.00648760895298	-0.201660598456	0.198791398015
446.87	-0.0336198470198	0.000371002424308	0.0130536534008	-0.201695651638	0.198894582632
446.904	-0.0402756584426	0.000260630202651	0.0196238297558	-0.201733936842	0.19903851947
446.937	-0.0471334342266	0.00010113599868	0.026398243957	-0.201772733862	0.199197839328
446.974	-0.0537895189875	-9.81486824542e-05	0.0329782754077	-0.201812292002	0.199356343179
446.997	-0.0604453161702	-0.000341298299287	0.0395629909665	-0.201851599263	0.199529022718
447.049	-0.0673019484284	-0.000637711065798	0.0463540137561	-0.201874794845	0.199862262407
447.09	-0.07395525964	-0.000969866198129	0.0529569405948	-0.201883874094	0.200266320262
447.135	-0.08060614023	-0.00134560627334	0.0595761060918	-0.201855925936	0.201095034463
447.158	-0.0874510366607	-0.00177906272953	0.0664695544922	-0.201558998097	0.205211844545
447.207	-0.0940942035739	-0.00224514045823	0.073103838689	-0.201706075986	0.201887452986
447.207	-0.100730536409	-0.00275463935555	0.0797001072449	-0.201528575803	0.198312077947
447.249	-0.107528489364	-0.00332075835233	0.0860938658275	-0.199844738479	0.179588384606
447.271	-0.114122696572	-0.00391144403858	0.0922987875225	-0.201664578549	0.199809148572
447.304	-0.120747415339	-0.00454833501203	0.0988865154852	-0.201628483166	0.199209652177
447.338	-0.12756764697	-0.00524997470272	0.105658994947	-0.201653049684	0.199187104905
447.377	-0.134183561131	-0.00597524150441	0.112235159383	-0.20169034518	0.199298824591
447.414	-0.140795671653	-0.00674413710612	0.118815834001	-0.201729657849	0.19944170775
447.46	-0.147603876961	-0.00758199052269	0.125601129434	-0.201769003325	0.199589214607
447.492	-0.154207396034	-0.00843953022158	0.132192154153	-0.201808290727	0.199756785873
447.527	-0.160806232098	-0.0093407436213	0.138788053389	-0.201846603982	0.199919350563
447.556	-0.167599810131	-0.0103149501736	0.145587978984	-0.20188438834	0.200040924702
